ams-elnVoltageDivider/eln.vcd
$date
    Tue Feb 23 13:13:26 2016
$end

$version
    2.0.beta1
$end

$timescale
      1 ps
$end

$scope module SystemC_AMS $end

$var real 1 !  signal $end
$var real 1 "  signalInput $end

$upscope $end

$enddefinitions $end


#0
r0.000000000000000 !
r0.000000000000000 "

#5000000
r0.1036555049578234 !
r0.009423227723438489 "

#10000000
r0.2072087144467341 !
r0.01883715585879401 "

#15000000
r0.3105574339510972 !
r0.02823249399555430 "

#20000000
r0.4135996707622041 !
r0.03759997006929128 "

#25000000
r0.5162337346327618 !
r0.04693033951206926 "

#30000000
r0.6183583381328912 !
r0.05621439437571740 "

#35000000
r0.7198726966085903 !
r0.06544297241896277 "

#40000000
r0.8206766276440208 !
r0.07460696614945646 "

#45000000
r0.9206706499294566 !
r0.08369733181176879 "

#50000000
r1.019756081437326 !
r0.09270509831248423 "

#55000000
r1.117835136809461 !
r0.1016213760735874 "

#60000000
r1.214811023859437 !
r0.1104373658054034 "

#65000000
r1.310588039094776 !
r0.1191443671904342 "

#70000000
r1.405071662164740 !
r0.1277337874695218 "

#75000000
r1.498168649140504 !
r0.1361971499218640 "

#80000000
r1.589787124535661 !
r0.1445261022305146 "

#85000000
r1.679836671976225 !
r0.1527124247251114 "

#90000000
r1.768228423430689 !
r0.1607480384936990 "

#95000000
r1.854875146912031 !
r0.1686250133556392 "

#100000000
r1.939691332565161 !
r0.1763355756877420 "

#105000000
r2.022593277054822 !
r0.1838721160958929 "

#110000000
r2.103499166170676 !
r0.1912271969246069 "

#115000000
r2.182329155568051 !
r0.1983935595970956 "

#120000000
r2.259005449564672 !
r0.2053641317786066 "

#125000000
r2.333452377915607 !
r0.2121320343559643 "

#130000000
r2.405596470490658 !
r0.2186905882264235 "

#135000000
r2.475366529780516 !
r0.2250333208891379 "

#140000000
r2.542693701160105 !
r0.2311539728327368 "

#145000000
r2.607511540839778 !
r0.2370465037127071 "

#150000000
r2.669756081437326 !
r0.2427050983124842 "

#155000000
r2.729365895106053 !
r0.2481241722823685 "

#160000000
r2.786282154156650 !
r0.2532983776506045 "

#165000000
r2.840448689113014 !
r0.2582226081011831 "

#170000000
r2.891812044144749 !
r0.2628920040131591 "

#175000000
r2.940321529821614 !
r0.2673019572565104 "

#180000000
r2.985929273137864 !
r0.2714481157398059 "

#185000000
r3.028590264757137 !
r0.2753263877051944 "

#190000000
r3.068262403431229 !
r0.2789329457664754 "

#195000000
r3.104906537548944 !
r0.2822642306862677 "

#200000000
r3.138486503774006 !
r0.2853169548885461 "

#205000000
r3.168969162733912 !
r0.2880881057030830 "

#210000000
r3.196324431724483 !
r0.2905749483385894 "

#215000000
r3.220525314397866 !
r0.2927750285816242 "

#220000000
r3.241547927404672 !
r0.2946861752186066 "

#225000000
r3.259371523963955 !
r0.2963065021785414 "

#230000000
r3.273978514337777 !
r0.2976344103943434 "

#235000000
r3.285354483190164 !
r0.2986685893809241 "

#240000000
r3.293488203813296 !
r0.2994080185284815 "

#245000000
r3.298371649206914 !
r0.2998519681097195 "

#250000000
r3.300000000000000 !
r0.3000000000000000 "

#255000000
r3.298371649206914 !
r0.2998519681097195 "

#260000000
r3.293488203813296 !
r0.2994080185284815 "

#265000000
r3.285354483190164 !
r0.2986685893809241 "

#270000000
r3.273978514337777 !
r0.2976344103943434 "

#275000000
r3.259371523963955 !
r0.2963065021785414 "

#280000000
r3.241547927404673 !
r0.2946861752186067 "

#285000000
r3.220525314397866 !
r0.2927750285816242 "

#290000000
r3.196324431724483 !
r0.2905749483385894 "

#295000000
r3.168969162733912 !
r0.2880881057030830 "

#300000000
r3.138486503774007 !
r0.2853169548885461 "

#305000000
r3.104906537548944 !
r0.2822642306862677 "

#310000000
r3.068262403431230 !
r0.2789329457664755 "

#315000000
r3.028590264757138 !
r0.2753263877051944 "

#320000000
r2.985929273137864 !
r0.2714481157398059 "

#325000000
r2.940321529821614 !
r0.2673019572565104 "

#330000000
r2.891812044144749 !
r0.2628920040131591 "

#335000000
r2.840448689113014 !
r0.2582226081011831 "

#340000000
r2.786282154156650 !
r0.2532983776506046 "

#345000000
r2.729365895106053 !
r0.2481241722823685 "

#350000000
r2.669756081437326 !
r0.2427050983124842 "

#355000000
r2.607511540839778 !
r0.2370465037127072 "

#360000000
r2.542693701160105 !
r0.2311539728327368 "

#365000000
r2.475366529780517 !
r0.2250333208891379 "

#370000000
r2.405596470490658 !
r0.2186905882264235 "

#375000000
r2.333452377915607 !
r0.2121320343559643 "

#380000000
r2.259005449564673 !
r0.2053641317786067 "

#385000000
r2.182329155568051 !
r0.1983935595970956 "

#390000000
r2.103499166170675 !
r0.1912271969246069 "

#395000000
r2.022593277054824 !
r0.1838721160958931 "

#400000000
r1.939691332565162 !
r0.1763355756877420 "

#405000000
r1.854875146912031 !
r0.1686250133556393 "

#410000000
r1.768228423430689 !
r0.1607480384936990 "

#415000000
r1.679836671976225 !
r0.1527124247251113 "

#420000000
r1.589787124535661 !
r0.1445261022305147 "

#425000000
r1.498168649140505 !
r0.1361971499218641 "

#430000000
r1.405071662164739 !
r0.1277337874695218 "

#435000000
r1.310588039094776 !
r0.1191443671904342 "

#440000000
r1.214811023859438 !
r0.1104373658054035 "

#445000000
r1.117835136809461 !
r0.1016213760735874 "

#450000000
r1.019756081437327 !
r0.09270509831248427 "

#455000000
r0.9206706499294560 !
r0.08369733181176875 "

#460000000
r0.8206766276440208 !
r0.07460696614945646 "

#465000000
r0.7198726966085911 !
r0.06544297241896284 "

#470000000
r0.6183583381328911 !
r0.05621439437571738 "

#475000000
r0.5162337346327622 !
r0.04693033951206931 "

#480000000
r0.4135996707622049 !
r0.03759997006929137 "

#485000000
r0.3105574339510974 !
r0.02823249399555431 "

#490000000
r0.2072087144467348 !
r0.01883715585879408 "

#495000000
r0.1036555049578246 !
r0.009423227723438605 "

#500000000
r4.041334437186266e-16 !
r3.673940397442060e-17 "

#505000000
r-0.1036555049578224 !
r-0.009423227723438399 "

#510000000
r-0.2072087144467340 !
r-0.01883715585879401 "

#515000000
r-0.3105574339510965 !
r-0.02823249399555423 "

#520000000
r-0.4135996707622041 !
r-0.03759997006929129 "

#525000000
r-0.5162337346327629 !
r-0.04693033951206936 "

#530000000
r-0.6183583381328916 !
r-0.05621439437571743 "

#535000000
r-0.7198726966085888 !
r-0.06544297241896263 "

#540000000
r-0.8206766276440201 !
r-0.07460696614945639 "

#545000000
r-0.9206706499294552 !
r-0.08369733181176868 "

#550000000
r-1.019756081437326 !
r-0.09270509831248419 "

#555000000
r-1.117835136809462 !
r-0.1016213760735875 "

#560000000
r-1.214811023859437 !
r-0.1104373658054034 "

#565000000
r-1.310588039094777 !
r-0.1191443671904343 "

#570000000
r-1.405071662164740 !
r-0.1277337874695218 "

#575000000
r-1.498168649140505 !
r-0.1361971499218641 "

#580000000
r-1.589787124535659 !
r-0.1445261022305145 "

#585000000
r-1.679836671976225 !
r-0.1527124247251114 "

#590000000
r-1.768228423430688 !
r-0.1607480384936990 "

#595000000
r-1.854875146912031 !
r-0.1686250133556392 "

#600000000
r-1.939691332565161 !
r-0.1763355756877419 "

#605000000
r-2.022593277054823 !
r-0.1838721160958930 "

#610000000
r-2.103499166170676 !
r-0.1912271969246069 "

#615000000
r-2.182329155568052 !
r-0.1983935595970956 "

#620000000
r-2.259005449564671 !
r-0.2053641317786065 "

#625000000
r-2.333452377915607 !
r-0.2121320343559643 "

#630000000
r-2.405596470490657 !
r-0.2186905882264234 "

#635000000
r-2.475366529780516 !
r-0.2250333208891379 "

#640000000
r-2.542693701160105 !
r-0.2311539728327369 "

#645000000
r-2.607511540839778 !
r-0.2370465037127072 "

#650000000
r-2.669756081437326 !
r-0.2427050983124842 "

#655000000
r-2.729365895106055 !
r-0.2481241722823687 "

#660000000
r-2.786282154156650 !
r-0.2532983776506046 "

#665000000
r-2.840448689113013 !
r-0.2582226081011830 "

#670000000
r-2.891812044144749 !
r-0.2628920040131591 "

#675000000
r-2.940321529821614 !
r-0.2673019572565104 "

#680000000
r-2.985929273137863 !
r-0.2714481157398058 "

#685000000
r-3.028590264757138 !
r-0.2753263877051944 "

#690000000
r-3.068262403431230 !
r-0.2789329457664755 "

#695000000
r-3.104906537548944 !
r-0.2822642306862677 "

#700000000
r-3.138486503774006 !
r-0.2853169548885461 "

#705000000
r-3.168969162733911 !
r-0.2880881057030829 "

#710000000
r-3.196324431724482 !
r-0.2905749483385893 "

#715000000
r-3.220525314397866 !
r-0.2927750285816242 "

#720000000
r-3.241547927404673 !
r-0.2946861752186067 "

#725000000
r-3.259371523963954 !
r-0.2963065021785414 "

#730000000
r-3.273978514337776 !
r-0.2976344103943434 "

#735000000
r-3.285354483190164 !
r-0.2986685893809241 "

#740000000
r-3.293488203813296 !
r-0.2994080185284815 "

#745000000
r-3.298371649206914 !
r-0.2998519681097195 "

#750000000
r-3.300000000000000 !
r-0.3000000000000000 "

#755000000
r-3.298371649206914 !
r-0.2998519681097195 "

#760000000
r-3.293488203813296 !
r-0.2994080185284815 "

#765000000
r-3.285354483190164 !
r-0.2986685893809241 "

#770000000
r-3.273978514337777 !
r-0.2976344103943434 "

#775000000
r-3.259371523963955 !
r-0.2963065021785414 "

#780000000
r-3.241547927404672 !
r-0.2946861752186066 "

#785000000
r-3.220525314397866 !
r-0.2927750285816242 "

#790000000
r-3.196324431724483 !
r-0.2905749483385894 "

#795000000
r-3.168969162733912 !
r-0.2880881057030830 "

#800000000
r-3.138486503774007 !
r-0.2853169548885461 "

#805000000
r-3.104906537548944 !
r-0.2822642306862677 "

#810000000
r-3.068262403431230 !
r-0.2789329457664755 "

#815000000
r-3.028590264757137 !
r-0.2753263877051944 "

#820000000
r-2.985929273137864 !
r-0.2714481157398059 "

#825000000
r-2.940321529821614 !
r-0.2673019572565104 "

#830000000
r-2.891812044144749 !
r-0.2628920040131590 "

#835000000
r-2.840448689113015 !
r-0.2582226081011832 "

#840000000
r-2.786282154156651 !
r-0.2532983776506047 "

#845000000
r-2.729365895106054 !
r-0.2481241722823686 "

#850000000
r-2.669756081437327 !
r-0.2427050983124843 "

#855000000
r-2.607511540839779 !
r-0.2370465037127072 "

#860000000
r-2.542693701160104 !
r-0.2311539728327367 "

#865000000
r-2.475366529780516 !
r-0.2250333208891379 "

#870000000
r-2.405596470490658 !
r-0.2186905882264235 "

#875000000
r-2.333452377915607 !
r-0.2121320343559643 "

#880000000
r-2.259005449564673 !
r-0.2053641317786067 "

#885000000
r-2.182329155568052 !
r-0.1983935595970957 "

#890000000
r-2.103499166170676 !
r-0.1912271969246069 "

#895000000
r-2.022593277054822 !
r-0.1838721160958930 "

#900000000
r-1.939691332565162 !
r-0.1763355756877420 "

#905000000
r-1.854875146912032 !
r-0.1686250133556393 "

#910000000
r-1.768228423430688 !
r-0.1607480384936989 "

#915000000
r-1.679836671976225 !
r-0.1527124247251114 "

#920000000
r-1.589787124535661 !
r-0.1445261022305146 "

#925000000
r-1.498168649140505 !
r-0.1361971499218641 "

#930000000
r-1.405071662164741 !
r-0.1277337874695219 "

#935000000
r-1.310588039094778 !
r-0.1191443671904344 "

#940000000
r-1.214811023859437 !
r-0.1104373658054034 "

#945000000
r-1.117835136809462 !
r-0.1016213760735874 "

#950000000
r-1.019756081437327 !
r-0.09270509831248429 "

#955000000
r-0.9206706499294549 !
r-0.08369733181176864 "

#960000000
r-0.8206766276440226 !
r-0.07460696614945661 "

#965000000
r-0.7198726966085929 !
r-0.06544297241896301 "

#970000000
r-0.6183583381328914 !
r-0.05621439437571741 "

#975000000
r-0.5162337346327626 !
r-0.04693033951206933 "

#980000000
r-0.4135996707622053 !
r-0.03759997006929140 "

#985000000
r-0.3105574339510992 !
r-0.02823249399555448 "

#990000000
r-0.2072087144467367 !
r-0.01883715585879425 "

#995000000
r-0.1036555049578265 !
r-0.009423227723438777 "

#1000000000
r-8.082668874372531e-16 !
r-7.347880794884120e-17 "

#1005000000
r0.1036555049578220 !
r0.009423227723438361 "

#1010000000
r0.2072087144467321 !
r0.01883715585879384 "

#1015000000
r0.3105574339510976 !
r0.02823249399555433 "

#1020000000
r0.4135996707622038 !
r0.03759997006929126 "

#1025000000
r0.5162337346327610 !
r0.04693033951206919 "

#1030000000
r0.6183583381328899 !
r0.05621439437571727 "

#1035000000
r0.7198726966085912 !
r0.06544297241896285 "

#1040000000
r0.8206766276440211 !
r0.07460696614945647 "

#1045000000
r0.9206706499294562 !
r0.08369733181176876 "

#1050000000
r1.019756081437328 !
r0.09270509831248441 "

#1055000000
r1.117835136809463 !
r0.1016213760735876 "

#1060000000
r1.214811023859438 !
r0.1104373658054035 "

#1065000000
r1.310588039094774 !
r0.1191443671904340 "

#1070000000
r1.405071662164737 !
r0.1277337874695215 "

#1075000000
r1.498168649140504 !
r0.1361971499218640 "

#1080000000
r1.589787124535659 !
r0.1445261022305145 "

#1085000000
r1.679836671976223 !
r0.1527124247251113 "

#1090000000
r1.768228423430687 !
r0.1607480384936988 "

#1095000000
r1.854875146912030 !
r0.1686250133556391 "

#1100000000
r1.939691332565161 !
r0.1763355756877419 "

#1105000000
r2.022593277054821 !
r0.1838721160958929 "

#1110000000
r2.103499166170677 !
r0.1912271969246070 "

#1115000000
r2.182329155568051 !
r0.1983935595970956 "

#1120000000
r2.259005449564672 !
r0.2053641317786066 "

#1125000000
r2.333452377915606 !
r0.2121320343559642 "

#1130000000
r2.405596470490659 !
r0.2186905882264236 "

#1135000000
r2.475366529780517 !
r0.2250333208891379 "

#1140000000
r2.542693701160105 !
r0.2311539728327368 "

#1145000000
r2.607511540839780 !
r0.2370465037127073 "

#1150000000
r2.669756081437328 !
r0.2427050983124844 "

#1155000000
r2.729365895106053 !
r0.2481241722823685 "

#1160000000
r2.786282154156649 !
r0.2532983776506045 "

#1165000000
r2.840448689113012 !
r0.2582226081011830 "

#1170000000
r2.891812044144749 !
r0.2628920040131591 "

#1175000000
r2.940321529821613 !
r0.2673019572565103 "

#1180000000
r2.985929273137863 !
r0.2714481157398058 "

#1185000000
r3.028590264757137 !
r0.2753263877051943 "

#1190000000
r3.068262403431230 !
r0.2789329457664755 "

#1195000000
r3.104906537548944 !
r0.2822642306862677 "

#1200000000
r3.138486503774006 !
r0.2853169548885461 "

#1205000000
r3.168969162733912 !
r0.2880881057030830 "

#1210000000
r3.196324431724483 !
r0.2905749483385894 "

#1215000000
r3.220525314397866 !
r0.2927750285816242 "

#1220000000
r3.241547927404672 !
r0.2946861752186066 "

#1225000000
r3.259371523963955 !
r0.2963065021785414 "

#1230000000
r3.273978514337777 !
r0.2976344103943434 "

#1235000000
r3.285354483190164 !
r0.2986685893809241 "

#1240000000
r3.293488203813296 !
r0.2994080185284815 "

#1245000000
r3.298371649206914 !
r0.2998519681097195 "

#1250000000
r3.300000000000000 !
r0.3000000000000000 "

#1255000000
r3.298371649206914 !
r0.2998519681097195 "

#1260000000
r3.293488203813296 !
r0.2994080185284815 "

#1265000000
r3.285354483190164 !
r0.2986685893809241 "

#1270000000
r3.273978514337777 !
r0.2976344103943434 "

#1275000000
r3.259371523963954 !
r0.2963065021785414 "

#1280000000
r3.241547927404672 !
r0.2946861752186066 "

#1285000000
r3.220525314397866 !
r0.2927750285816242 "

#1290000000
r3.196324431724483 !
r0.2905749483385894 "

#1295000000
r3.168969162733912 !
r0.2880881057030830 "

#1300000000
r3.138486503774007 !
r0.2853169548885461 "

#1305000000
r3.104906537548945 !
r0.2822642306862678 "

#1310000000
r3.068262403431228 !
r0.2789329457664754 "

#1315000000
r3.028590264757137 !
r0.2753263877051943 "

#1320000000
r2.985929273137863 !
r0.2714481157398058 "

#1325000000
r2.940321529821616 !
r0.2673019572565106 "

#1330000000
r2.891812044144752 !
r0.2628920040131593 "

#1335000000
r2.840448689113014 !
r0.2582226081011831 "

#1340000000
r2.786282154156650 !
r0.2532983776506045 "

#1345000000
r2.729365895106054 !
r0.2481241722823686 "

#1350000000
r2.669756081437327 !
r0.2427050983124843 "

#1355000000
r2.607511540839779 !
r0.2370465037127072 "

#1360000000
r2.542693701160106 !
r0.2311539728327369 "

#1365000000
r2.475366529780518 !
r0.2250333208891381 "

#1370000000
r2.405596470490656 !
r0.2186905882264233 "

#1375000000
r2.333452377915605 !
r0.2121320343559642 "

#1380000000
r2.259005449564671 !
r0.2053641317786065 "

#1385000000
r2.182329155568051 !
r0.1983935595970955 "

#1390000000
r2.103499166170676 !
r0.1912271969246070 "

#1395000000
r2.022593277054823 !
r0.1838721160958930 "

#1400000000
r1.939691332565162 !
r0.1763355756877420 "

#1405000000
r1.854875146912027 !
r0.1686250133556389 "

#1410000000
r1.768228423430691 !
r0.1607480384936992 "

#1415000000
r1.679836671976228 !
r0.1527124247251117 "

#1420000000
r1.589787124535663 !
r0.1445261022305149 "

#1425000000
r1.498168649140508 !
r0.1361971499218644 "

#1430000000
r1.405071662164739 !
r0.1277337874695217 "

#1435000000
r1.310588039094776 !
r0.1191443671904342 "

#1440000000
r1.214811023859437 !
r0.1104373658054034 "

#1445000000
r1.117835136809462 !
r0.1016213760735875 "

#1450000000
r1.019756081437328 !
r0.09270509831248434 "

#1455000000
r0.9206706499294582 !
r0.08369733181176894 "

#1460000000
r0.8206766276440230 !
r0.07460696614945665 "

#1465000000
r0.7198726966085875 !
r0.06544297241896252 "

#1470000000
r0.6183583381328890 !
r0.05621439437571719 "

#1475000000
r0.5162337346327601 !
r0.04693033951206911 "

#1480000000
r0.4135996707622028 !
r0.03759997006929117 "

#1485000000
r0.3105574339510966 !
r0.02823249399555424 "

#1490000000
r0.2072087144467342 !
r0.01883715585879402 "

#1495000000
r0.1036555049578240 !
r0.009423227723438546 "

#1500000000
r1.212400331155880e-15 !
r1.102182119232618e-16 "

#1505000000
r-0.1036555049578216 !
r-0.009423227723438326 "

#1510000000
r-0.2072087144467318 !
r-0.01883715585879380 "

#1515000000
r-0.3105574339510943 !
r-0.02823249399555403 "

#1520000000
r-0.4135996707622004 !
r-0.03759997006929096 "

#1525000000
r-0.5162337346327635 !
r-0.04693033951206942 "

#1530000000
r-0.6183583381328923 !
r-0.05621439437571749 "

#1535000000
r-0.7198726966085909 !
r-0.06544297241896282 "

#1540000000
r-0.8206766276440207 !
r-0.07460696614945644 "

#1545000000
r-0.9206706499294558 !
r-0.08369733181176872 "

#1550000000
r-1.019756081437325 !
r-0.09270509831248412 "

#1555000000
r-1.117835136809460 !
r-0.1016213760735873 "

#1560000000
r-1.214811023859440 !
r-0.1104373658054037 "

#1565000000
r-1.310588039094779 !
r-0.1191443671904344 "

#1570000000
r-1.405071662164742 !
r-0.1277337874695220 "

#1575000000
r-1.498168649140506 !
r-0.1361971499218642 "

#1580000000
r-1.589787124535656 !
r-0.1445261022305142 "

#1585000000
r-1.679836671976221 !
r-0.1527124247251110 "

#1590000000
r-1.768228423430688 !
r-0.1607480384936990 "

#1595000000
r-1.854875146912030 !
r-0.1686250133556391 "

#1600000000
r-1.939691332565160 !
r-0.1763355756877419 "

#1605000000
r-2.022593277054821 !
r-0.1838721160958929 "

#1610000000
r-2.103499166170674 !
r-0.1912271969246067 "

#1615000000
r-2.182329155568049 !
r-0.1983935595970954 "

#1620000000
r-2.259005449564670 !
r-0.2053641317786064 "

#1625000000
r-2.333452377915608 !
r-0.2121320343559644 "

#1630000000
r-2.405596470490659 !
r-0.2186905882264236 "

#1635000000
r-2.475366529780517 !
r-0.2250333208891379 "

#1640000000
r-2.542693701160105 !
r-0.2311539728327368 "

#1645000000
r-2.607511540839778 !
r-0.2370465037127071 "

#1650000000
r-2.669756081437326 !
r-0.2427050983124842 "

#1655000000
r-2.729365895106056 !
r-0.2481241722823688 "

#1660000000
r-2.786282154156651 !
r-0.2532983776506047 "

#1665000000
r-2.840448689113012 !
r-0.2582226081011830 "

#1670000000
r-2.891812044144748 !
r-0.2628920040131589 "

#1675000000
r-2.940321529821612 !
r-0.2673019572565102 "

#1680000000
r-2.985929273137862 !
r-0.2714481157398057 "

#1685000000
r-3.028590264757137 !
r-0.2753263877051944 "

#1690000000
r-3.068262403431229 !
r-0.2789329457664754 "

#1695000000
r-3.104906537548943 !
r-0.2822642306862676 "

#1700000000
r-3.138486503774006 !
r-0.2853169548885460 "

#1705000000
r-3.168969162733911 !
r-0.2880881057030829 "

#1710000000
r-3.196324431724482 !
r-0.2905749483385893 "

#1715000000
r-3.220525314397866 !
r-0.2927750285816242 "

#1720000000
r-3.241547927404673 !
r-0.2946861752186067 "

#1725000000
r-3.259371523963955 !
r-0.2963065021785414 "

#1730000000
r-3.273978514337777 !
r-0.2976344103943434 "

#1735000000
r-3.285354483190164 !
r-0.2986685893809241 "

#1740000000
r-3.293488203813296 !
r-0.2994080185284815 "

#1745000000
r-3.298371649206914 !
r-0.2998519681097195 "

#1750000000
r-3.300000000000000 !
r-0.3000000000000000 "

#1755000000
r-3.298371649206914 !
r-0.2998519681097195 "

#1760000000
r-3.293488203813296 !
r-0.2994080185284815 "

#1765000000
r-3.285354483190164 !
r-0.2986685893809241 "

#1770000000
r-3.273978514337777 !
r-0.2976344103943435 "

#1775000000
r-3.259371523963955 !
r-0.2963065021785414 "

#1780000000
r-3.241547927404672 !
r-0.2946861752186066 "

#1785000000
r-3.220525314397866 !
r-0.2927750285816242 "

#1790000000
r-3.196324431724483 !
r-0.2905749483385894 "

#1795000000
r-3.168969162733912 !
r-0.2880881057030830 "

#1800000000
r-3.138486503774007 !
r-0.2853169548885462 "

#1805000000
r-3.104906537548945 !
r-0.2822642306862678 "

#1810000000
r-3.068262403431230 !
r-0.2789329457664755 "

#1815000000
r-3.028590264757137 !
r-0.2753263877051943 "

#1820000000
r-2.985929273137863 !
r-0.2714481157398058 "

#1825000000
r-2.940321529821613 !
r-0.2673019572565103 "

#1830000000
r-2.891812044144749 !
r-0.2628920040131591 "

#1835000000
r-2.840448689113017 !
r-0.2582226081011834 "

#1840000000
r-2.786282154156650 !
r-0.2532983776506045 "

#1845000000
r-2.729365895106054 !
r-0.2481241722823686 "

#1850000000
r-2.669756081437327 !
r-0.2427050983124843 "

#1855000000
r-2.607511540839779 !
r-0.2370465037127072 "

#1860000000
r-2.542693701160106 !
r-0.2311539728327369 "

#1865000000
r-2.475366529780518 !
r-0.2250333208891381 "

#1870000000
r-2.405596470490661 !
r-0.2186905882264237 "

#1875000000
r-2.333452377915606 !
r-0.2121320343559642 "

#1880000000
r-2.259005449564672 !
r-0.2053641317786066 "

#1885000000
r-2.182329155568051 !
r-0.1983935595970956 "

#1890000000
r-2.103499166170676 !
r-0.1912271969246070 "

#1895000000
r-2.022593277054823 !
r-0.1838721160958930 "

#1900000000
r-1.939691332565162 !
r-0.1763355756877421 "

#1905000000
r-1.854875146912033 !
r-0.1686250133556394 "

#1910000000
r-1.768228423430686 !
r-0.1607480384936988 "

#1915000000
r-1.679836671976223 !
r-0.1527124247251112 "

#1920000000
r-1.589787124535664 !
r-0.1445261022305149 "

#1925000000
r-1.498168649140508 !
r-0.1361971499218644 "

#1930000000
r-1.405071662164744 !
r-0.1277337874695222 "

#1935000000
r-1.310588039094776 !
r-0.1191443671904342 "

#1940000000
r-1.214811023859438 !
r-0.1104373658054034 "

#1945000000
r-1.117835136809462 !
r-0.1016213760735875 "

#1950000000
r-1.019756081437328 !
r-0.09270509831248439 "

#1955000000
r-0.9206706499294586 !
r-0.08369733181176897 "

#1960000000
r-0.8206766276440234 !
r-0.07460696614945668 "

#1965000000
r-0.7198726966085937 !
r-0.06544297241896307 "

#1970000000
r-0.6183583381328951 !
r-0.05621439437571774 "

#1975000000
r-0.5162337346327606 !
r-0.04693033951206915 "

#1980000000
r-0.4135996707622090 !
r-0.03759997006929174 "

#1985000000
r-0.3105574339510971 !
r-0.02823249399555429 "

#1990000000
r-0.2072087144467404 !
r-0.01883715585879459 "

#1995000000
r-0.1036555049578244 !
r-0.009423227723438583 "

#2000000000
r-1.616533774874506e-15 !
r-1.469576158976824e-16 "

#2005000000
r0.1036555049578270 !
r0.009423227723438822 "

#2010000000
r0.2072087144467313 !
r0.01883715585879376 "

#2015000000
r0.3105574339510997 !
r0.02823249399555452 "

#2020000000
r0.4135996707622000 !
r0.03759997006929092 "

#2025000000
r0.5162337346327631 !
r0.04693033951206938 "

#2030000000
r0.6183583381328920 !
r0.05621439437571746 "

#2035000000
r0.7198726966085905 !
r0.06544297241896278 "

#2040000000
r0.8206766276440203 !
r0.07460696614945640 "

#2045000000
r0.9206706499294498 !
r0.08369733181176818 "

#2050000000
r1.019756081437325 !
r0.09270509831248411 "

#2055000000
r1.117835136809459 !
r0.1016213760735872 "

#2060000000
r1.214811023859435 !
r0.1104373658054032 "

#2065000000
r1.310588039094773 !
r0.1191443671904339 "

#2070000000
r1.405071662164741 !
r0.1277337874695220 "

#2075000000
r1.498168649140500 !
r0.1361971499218637 "

#2080000000
r1.589787124535661 !
r0.1445261022305147 "

#2085000000
r1.679836671976220 !
r0.1527124247251110 "

#2090000000
r1.768228423430688 !
r0.1607480384936990 "

#2095000000
r1.854875146912030 !
r0.1686250133556391 "

#2100000000
r1.939691332565165 !
r0.1763355756877423 "

#2105000000
r2.022593277054821 !
r0.1838721160958928 "

#2110000000
r2.103499166170678 !
r0.1912271969246072 "

#2115000000
r2.182329155568048 !
r0.1983935595970953 "

#2120000000
r2.259005449564674 !
r0.2053641317786067 "

#2125000000
r2.333452377915608 !
r0.2121320343559644 "

#2130000000
r2.405596470490655 !
r0.2186905882264232 "

#2135000000
r2.475366529780517 !
r0.2250333208891379 "

#2140000000
r2.542693701160101 !
r0.2311539728327364 "

#2145000000
r2.607511540839778 !
r0.2370465037127071 "

#2150000000
r2.669756081437325 !
r0.2427050983124842 "

#2155000000
r2.729365895106052 !
r0.2481241722823684 "

#2160000000
r2.786282154156648 !
r0.2532983776506044 "

#2165000000
r2.840448689113015 !
r0.2582226081011832 "

#2170000000
r2.891812044144748 !
r0.2628920040131589 "

#2175000000
r2.940321529821614 !
r0.2673019572565104 "

#2180000000
r2.985929273137862 !
r0.2714481157398057 "

#2185000000
r3.028590264757137 !
r0.2753263877051944 "

#2190000000
r3.068262403431229 !
r0.2789329457664754 "

#2195000000
r3.104906537548945 !
r0.2822642306862678 "

#2200000000
r3.138486503774006 !
r0.2853169548885460 "

#2205000000
r3.168969162733913 !
r0.2880881057030831 "

#2210000000
r3.196324431724482 !
r0.2905749483385893 "

#2215000000
r3.220525314397867 !
r0.2927750285816243 "

#2220000000
r3.241547927404673 !
r0.2946861752186067 "

#2225000000
r3.259371523963954 !
r0.2963065021785413 "

#2230000000
r3.273978514337777 !
r0.2976344103943434 "

#2235000000
r3.285354483190163 !
r0.2986685893809240 "

#2240000000
r3.293488203813296 !
r0.2994080185284815 "

#2245000000
r3.298371649206914 !
r0.2998519681097195 "

#2250000000
r3.300000000000000 !
r0.3000000000000000 "

#2255000000
r3.298371649206914 !
r0.2998519681097195 "

#2260000000
r3.293488203813296 !
r0.2994080185284815 "

#2265000000
r3.285354483190164 !
r0.2986685893809241 "

#2270000000
r3.273978514337776 !
r0.2976344103943434 "

#2275000000
r3.259371523963955 !
r0.2963065021785414 "

#2280000000
r3.241547927404672 !
r0.2946861752186066 "

#2285000000
r3.220525314397866 !
r0.2927750285816242 "

#2290000000
r3.196324431724481 !
r0.2905749483385893 "

#2295000000
r3.168969162733912 !
r0.2880881057030830 "

#2300000000
r3.138486503774006 !
r0.2853169548885460 "

#2305000000
r3.104906537548945 !
r0.2822642306862678 "

#2310000000
r3.068262403431231 !
r0.2789329457664756 "

#2315000000
r3.028590264757137 !
r0.2753263877051943 "

#2320000000
r2.985929273137866 !
r0.2714481157398060 "

#2325000000
r2.940321529821613 !
r0.2673019572565103 "

#2330000000
r2.891812044144752 !
r0.2628920040131593 "

#2335000000
r2.840448689113014 !
r0.2582226081011831 "

#2340000000
r2.786282154156650 !
r0.2532983776506046 "

#2345000000
r2.729365895106055 !
r0.2481241722823687 "

#2350000000
r2.669756081437328 !
r0.2427050983124844 "

#2355000000
r2.607511540839776 !
r0.2370465037127070 "

#2360000000
r2.542693701160106 !
r0.2311539728327370 "

#2365000000
r2.475366529780515 !
r0.2250333208891378 "

#2370000000
r2.405596470490661 !
r0.2186905882264237 "

#2375000000
r2.333452377915606 !
r0.2121320343559642 "

#2380000000
r2.259005449564672 !
r0.2053641317786066 "

#2385000000
r2.182329155568047 !
r0.1983935595970952 "

#2390000000
r2.103499166170677 !
r0.1912271969246070 "

#2395000000
r2.022593277054828 !
r0.1838721160958935 "

#2400000000
r1.939691332565163 !
r0.1763355756877421 "

#2405000000
r1.854875146912033 !
r0.1686250133556394 "

#2410000000
r1.768228423430686 !
r0.1607480384936988 "

#2415000000
r1.679836671976229 !
r0.1527124247251117 "

#2420000000
r1.589787124535659 !
r0.1445261022305145 "

#2425000000
r1.498168649140509 !
r0.1361971499218645 "

#2430000000
r1.405071662164739 !
r0.1277337874695218 "

#2435000000
r1.310588039094776 !
r0.1191443671904342 "

#2440000000
r1.214811023859438 !
r0.1104373658054035 "

#2445000000
r1.117835136809463 !
r0.1016213760735875 "

#2450000000
r1.019756081437323 !
r0.09270509831248390 "

#2455000000
r0.9206706499294589 !
r0.08369733181176901 "

#2460000000
r0.8206766276440182 !
r0.07460696614945621 "

#2465000000
r0.7198726966085941 !
r0.06544297241896312 "

#2470000000
r0.6183583381328898 !
r0.05621439437571726 "

#2475000000
r0.5162337346327609 !
r0.04693033951206918 "

#2480000000
r0.4135996707622094 !
r0.03759997006929178 "

#2485000000
r0.3105574339510975 !
r0.02823249399555432 "

#2490000000
r0.2072087144467408 !
r0.01883715585879462 "

#2495000000
r0.1036555049578248 !
r0.009423227723438621 "

#2500000000
r2.020667218593133e-15 !
r1.836970198721030e-16 "

