ams-low_pass_filter/rc_filter.vcd
$date
    Fri Feb 19 15:39:10 2016
$end

$version
    2.0.beta1
$end

$timescale
      1 ps
$end

$scope module SystemC_AMS $end

$var real 1 !  node_in $end
$var real 1 "  node_out $end
$var real 1 #  sig $end

$upscope $end

$enddefinitions $end


#0
r0.000000000000000 !
r0.000000000000000 "
r0.000000000000000 #

#500000
r0.000000000000000 !
r0.000000000000000 "

#1000000
r0.000000000000000 !
r0.000000000000000 "

#1500000
r0.000000000000000 !
r0.000000000000000 "

#2000000
r0.000000000000000 !
r0.000000000000000 "

#2500000
r0.000000000000000 !
r0.000000000000000 "

#3000000
r0.000000000000000 !
r0.000000000000000 "

#3500000
r0.000000000000000 !
r0.000000000000000 "

#4000000
r0.000000000000000 !
r0.000000000000000 "

#4500000
r0.000000000000000 !
r0.000000000000000 "

#5000000
r0.000000000000000 !
r0.000000000000000 "

#5500000
r0.000000000000000 !
r0.000000000000000 "

#6000000
r0.000000000000000 !
r0.000000000000000 "

#6500000
r0.000000000000000 !
r0.000000000000000 "

#7000000
r0.000000000000000 !
r0.000000000000000 "

#7500000
r0.000000000000000 !
r0.000000000000000 "

#8000000
r0.000000000000000 !
r0.000000000000000 "

#8500000
r0.000000000000000 !
r0.000000000000000 "

#9000000
r0.000000000000000 !
r0.000000000000000 "

#9500000
r0.000000000000000 !
r0.000000000000000 "

#10000000
r0.000000000000000 !
r0.000000000000000 "

#10500000
r0.000000000000000 !
r0.000000000000000 "

#11000000
r0.000000000000000 !
r0.000000000000000 "

#11500000
r0.000000000000000 !
r0.000000000000000 "

#12000000
r0.000000000000000 !
r0.000000000000000 "

#12500000
r0.000000000000000 !
r0.000000000000000 "

#13000000
r0.000000000000000 !
r0.000000000000000 "

#13500000
r0.000000000000000 !
r0.000000000000000 "

#14000000
r0.000000000000000 !
r0.000000000000000 "

#14500000
r0.000000000000000 !
r0.000000000000000 "

#15000000
r0.000000000000000 !
r0.000000000000000 "

#15500000
r0.000000000000000 !
r0.000000000000000 "

#16000000
r0.000000000000000 !
r0.000000000000000 "

#16500000
r0.000000000000000 !
r0.000000000000000 "

#17000000
r0.000000000000000 !
r0.000000000000000 "

#17500000
r0.000000000000000 !
r0.000000000000000 "

#18000000
r0.000000000000000 !
r0.000000000000000 "

#18500000
r0.000000000000000 !
r0.000000000000000 "

#19000000
r0.000000000000000 !
r0.000000000000000 "

#19500000
r0.000000000000000 !
r0.000000000000000 "

#20000000
r0.000000000000000 !
r0.000000000000000 "

#20500000
r0.000000000000000 !
r0.000000000000000 "

#21000000
r0.000000000000000 !
r0.000000000000000 "

#21500000
r0.000000000000000 !
r0.000000000000000 "

#22000000
r0.000000000000000 !
r0.000000000000000 "

#22500000
r0.000000000000000 !
r0.000000000000000 "

#23000000
r0.000000000000000 !
r0.000000000000000 "

#23500000
r0.000000000000000 !
r0.000000000000000 "

#24000000
r0.000000000000000 !
r0.000000000000000 "

#24500000
r0.000000000000000 !
r0.000000000000000 "

#25000000
r0.000000000000000 !
r0.000000000000000 "

#25500000
r0.000000000000000 !
r0.000000000000000 "

#26000000
r0.000000000000000 !
r0.000000000000000 "

#26500000
r0.000000000000000 !
r0.000000000000000 "

#27000000
r0.000000000000000 !
r0.000000000000000 "

#27500000
r0.000000000000000 !
r0.000000000000000 "

#28000000
r0.000000000000000 !
r0.000000000000000 "

#28500000
r0.000000000000000 !
r0.000000000000000 "

#29000000
r0.000000000000000 !
r0.000000000000000 "

#29500000
r0.000000000000000 !
r0.000000000000000 "

#30000000
r0.000000000000000 !
r0.000000000000000 "

#30500000
r0.000000000000000 !
r0.000000000000000 "

#31000000
r0.000000000000000 !
r0.000000000000000 "

#31500000
r0.000000000000000 !
r0.000000000000000 "

#32000000
r0.000000000000000 !
r0.000000000000000 "

#32500000
r0.000000000000000 !
r0.000000000000000 "

#33000000
r0.000000000000000 !
r0.000000000000000 "

#33500000
r0.000000000000000 !
r0.000000000000000 "

#34000000
r0.000000000000000 !
r0.000000000000000 "

#34500000
r0.000000000000000 !
r0.000000000000000 "

#35000000
r0.000000000000000 !
r0.000000000000000 "

#35500000
r0.000000000000000 !
r0.000000000000000 "

#36000000
r0.000000000000000 !
r0.000000000000000 "

#36500000
r0.000000000000000 !
r0.000000000000000 "

#37000000
r0.000000000000000 !
r0.000000000000000 "

#37500000
r0.000000000000000 !
r0.000000000000000 "

#38000000
r0.000000000000000 !
r0.000000000000000 "

#38500000
r0.000000000000000 !
r0.000000000000000 "

#39000000
r0.000000000000000 !
r0.000000000000000 "

#39500000
r0.000000000000000 !
r0.000000000000000 "

#40000000
r0.000000000000000 !
r0.000000000000000 "

#40500000
r0.000000000000000 !
r0.000000000000000 "

#41000000
r0.000000000000000 !
r0.000000000000000 "

#41500000
r0.000000000000000 !
r0.000000000000000 "

#42000000
r0.000000000000000 !
r0.000000000000000 "

#42500000
r0.000000000000000 !
r0.000000000000000 "

#43000000
r0.000000000000000 !
r0.000000000000000 "

#43500000
r0.000000000000000 !
r0.000000000000000 "

#44000000
r0.000000000000000 !
r0.000000000000000 "

#44500000
r0.000000000000000 !
r0.000000000000000 "

#45000000
r0.000000000000000 !
r0.000000000000000 "

#45500000
r0.000000000000000 !
r0.000000000000000 "

#46000000
r0.000000000000000 !
r0.000000000000000 "

#46500000
r0.000000000000000 !
r0.000000000000000 "

#47000000
r0.000000000000000 !
r0.000000000000000 "

#47500000
r0.000000000000000 !
r0.000000000000000 "

#48000000
r0.000000000000000 !
r0.000000000000000 "

#48500000
r0.000000000000000 !
r0.000000000000000 "

#49000000
r0.000000000000000 !
r0.000000000000000 "

#49500000
r0.000000000000000 !
r0.000000000000000 "

#50000000
r0.000000000000000 !
r0.000000000000000 "

#50500000
r0.000000000000000 !
r0.000000000000000 "

#51000000
r0.000000000000000 !
r0.000000000000000 "

#51500000
r0.000000000000000 !
r0.000000000000000 "

#52000000
r0.000000000000000 !
r0.000000000000000 "

#52500000
r0.000000000000000 !
r0.000000000000000 "

#53000000
r0.000000000000000 !
r0.000000000000000 "

#53500000
r0.000000000000000 !
r0.000000000000000 "

#54000000
r0.000000000000000 !
r0.000000000000000 "

#54500000
r0.000000000000000 !
r0.000000000000000 "

#55000000
r0.000000000000000 !
r0.000000000000000 "

#55500000
r0.000000000000000 !
r0.000000000000000 "

#56000000
r0.000000000000000 !
r0.000000000000000 "

#56500000
r0.000000000000000 !
r0.000000000000000 "

#57000000
r0.000000000000000 !
r0.000000000000000 "

#57500000
r0.000000000000000 !
r0.000000000000000 "

#58000000
r0.000000000000000 !
r0.000000000000000 "

#58500000
r0.000000000000000 !
r0.000000000000000 "

#59000000
r0.000000000000000 !
r0.000000000000000 "

#59500000
r0.000000000000000 !
r0.000000000000000 "

#60000000
r0.000000000000000 !
r0.000000000000000 "

#60500000
r0.000000000000000 !
r0.000000000000000 "

#61000000
r0.000000000000000 !
r0.000000000000000 "

#61500000
r0.000000000000000 !
r0.000000000000000 "

#62000000
r0.000000000000000 !
r0.000000000000000 "

#62500000
r0.000000000000000 !
r0.000000000000000 "

#63000000
r0.000000000000000 !
r0.000000000000000 "

#63500000
r0.000000000000000 !
r0.000000000000000 "

#64000000
r0.000000000000000 !
r0.000000000000000 "

#64500000
r0.000000000000000 !
r0.000000000000000 "

#65000000
r0.000000000000000 !
r0.000000000000000 "

#65500000
r0.000000000000000 !
r0.000000000000000 "

#66000000
r0.000000000000000 !
r0.000000000000000 "

#66500000
r0.000000000000000 !
r0.000000000000000 "

#67000000
r0.000000000000000 !
r0.000000000000000 "

#67500000
r0.000000000000000 !
r0.000000000000000 "

#68000000
r0.000000000000000 !
r0.000000000000000 "

#68500000
r0.000000000000000 !
r0.000000000000000 "

#69000000
r0.000000000000000 !
r0.000000000000000 "

#69500000
r0.000000000000000 !
r0.000000000000000 "

#70000000
r0.000000000000000 !
r0.000000000000000 "

#70500000
r0.000000000000000 !
r0.000000000000000 "

#71000000
r0.000000000000000 !
r0.000000000000000 "

#71500000
r0.000000000000000 !
r0.000000000000000 "

#72000000
r0.000000000000000 !
r0.000000000000000 "

#72500000
r0.000000000000000 !
r0.000000000000000 "

#73000000
r0.000000000000000 !
r0.000000000000000 "

#73500000
r0.000000000000000 !
r0.000000000000000 "

#74000000
r0.000000000000000 !
r0.000000000000000 "

#74500000
r0.000000000000000 !
r0.000000000000000 "

#75000000
r0.000000000000000 !
r0.000000000000000 "

#75500000
r0.000000000000000 !
r0.000000000000000 "

#76000000
r0.000000000000000 !
r0.000000000000000 "

#76500000
r0.000000000000000 !
r0.000000000000000 "

#77000000
r0.000000000000000 !
r0.000000000000000 "

#77500000
r0.000000000000000 !
r0.000000000000000 "

#78000000
r0.000000000000000 !
r0.000000000000000 "

#78500000
r0.000000000000000 !
r0.000000000000000 "

#79000000
r0.000000000000000 !
r0.000000000000000 "

#79500000
r0.000000000000000 !
r0.000000000000000 "

#80000000
r0.000000000000000 !
r0.000000000000000 "

#80500000
r0.000000000000000 !
r0.000000000000000 "

#81000000
r0.000000000000000 !
r0.000000000000000 "

#81500000
r0.000000000000000 !
r0.000000000000000 "

#82000000
r0.000000000000000 !
r0.000000000000000 "

#82500000
r0.000000000000000 !
r0.000000000000000 "

#83000000
r0.000000000000000 !
r0.000000000000000 "

#83500000
r0.000000000000000 !
r0.000000000000000 "

#84000000
r0.000000000000000 !
r0.000000000000000 "

#84500000
r0.000000000000000 !
r0.000000000000000 "

#85000000
r0.000000000000000 !
r0.000000000000000 "

#85500000
r0.000000000000000 !
r0.000000000000000 "

#86000000
r0.000000000000000 !
r0.000000000000000 "

#86500000
r0.000000000000000 !
r0.000000000000000 "

#87000000
r0.000000000000000 !
r0.000000000000000 "

#87500000
r0.000000000000000 !
r0.000000000000000 "

#88000000
r0.000000000000000 !
r0.000000000000000 "

#88500000
r0.000000000000000 !
r0.000000000000000 "

#89000000
r0.000000000000000 !
r0.000000000000000 "

#89500000
r0.000000000000000 !
r0.000000000000000 "

#90000000
r0.000000000000000 !
r0.000000000000000 "

#90500000
r0.000000000000000 !
r0.000000000000000 "

#91000000
r0.000000000000000 !
r0.000000000000000 "

#91500000
r0.000000000000000 !
r0.000000000000000 "

#92000000
r0.000000000000000 !
r0.000000000000000 "

#92500000
r0.000000000000000 !
r0.000000000000000 "

#93000000
r0.000000000000000 !
r0.000000000000000 "

#93500000
r0.000000000000000 !
r0.000000000000000 "

#94000000
r0.000000000000000 !
r0.000000000000000 "

#94500000
r0.000000000000000 !
r0.000000000000000 "

#95000000
r0.000000000000000 !
r0.000000000000000 "

#95500000
r0.000000000000000 !
r0.000000000000000 "

#96000000
r0.000000000000000 !
r0.000000000000000 "

#96500000
r0.000000000000000 !
r0.000000000000000 "

#97000000
r0.000000000000000 !
r0.000000000000000 "

#97500000
r0.000000000000000 !
r0.000000000000000 "

#98000000
r0.000000000000000 !
r0.000000000000000 "

#98500000
r0.000000000000000 !
r0.000000000000000 "

#99000000
r0.000000000000000 !
r0.000000000000000 "

#99500000
r0.000000000000000 !
r0.000000000000000 "

#100000000
r0.000000000000000 !
r0.000000000000000 "

#100500000
r0.000000000000000 !
r0.000000000000000 "

#101000000
r0.000000000000000 !
r0.000000000000000 "

#101500000
r0.000000000000000 !
r0.000000000000000 "

#102000000
r0.000000000000000 !
r0.000000000000000 "

#102500000
r0.000000000000000 !
r0.000000000000000 "

#103000000
r0.000000000000000 !
r0.000000000000000 "

#103500000
r0.000000000000000 !
r0.000000000000000 "

#104000000
r0.000000000000000 !
r0.000000000000000 "

#104500000
r0.000000000000000 !
r0.000000000000000 "

#105000000
r0.000000000000000 !
r0.000000000000000 "

#105500000
r0.000000000000000 !
r0.000000000000000 "

#106000000
r0.000000000000000 !
r0.000000000000000 "

#106500000
r0.000000000000000 !
r0.000000000000000 "

#107000000
r0.000000000000000 !
r0.000000000000000 "

#107500000
r0.000000000000000 !
r0.000000000000000 "

#108000000
r0.000000000000000 !
r0.000000000000000 "

#108500000
r0.000000000000000 !
r0.000000000000000 "

#109000000
r0.000000000000000 !
r0.000000000000000 "

#109500000
r0.000000000000000 !
r0.000000000000000 "

#110000000
r0.000000000000000 !
r0.000000000000000 "

#110500000
r0.000000000000000 !
r0.000000000000000 "

#111000000
r0.000000000000000 !
r0.000000000000000 "

#111500000
r0.000000000000000 !
r0.000000000000000 "

#112000000
r0.000000000000000 !
r0.000000000000000 "

#112500000
r0.000000000000000 !
r0.000000000000000 "

#113000000
r0.000000000000000 !
r0.000000000000000 "

#113500000
r0.000000000000000 !
r0.000000000000000 "

#114000000
r0.000000000000000 !
r0.000000000000000 "

#114500000
r0.000000000000000 !
r0.000000000000000 "

#115000000
r0.000000000000000 !
r0.000000000000000 "

#115500000
r0.000000000000000 !
r0.000000000000000 "

#116000000
r0.000000000000000 !
r0.000000000000000 "

#116500000
r0.000000000000000 !
r0.000000000000000 "

#117000000
r0.000000000000000 !
r0.000000000000000 "

#117500000
r0.000000000000000 !
r0.000000000000000 "

#118000000
r0.000000000000000 !
r0.000000000000000 "

#118500000
r0.000000000000000 !
r0.000000000000000 "

#119000000
r0.000000000000000 !
r0.000000000000000 "

#119500000
r0.000000000000000 !
r0.000000000000000 "

#120000000
r0.000000000000000 !
r0.000000000000000 "

#120500000
r0.000000000000000 !
r0.000000000000000 "

#121000000
r0.000000000000000 !
r0.000000000000000 "

#121500000
r0.000000000000000 !
r0.000000000000000 "

#122000000
r0.000000000000000 !
r0.000000000000000 "

#122500000
r0.000000000000000 !
r0.000000000000000 "

#123000000
r0.000000000000000 !
r0.000000000000000 "

#123500000
r0.000000000000000 !
r0.000000000000000 "

#124000000
r0.000000000000000 !
r0.000000000000000 "

#124500000
r0.000000000000000 !
r0.000000000000000 "

#125000000
r0.000000000000000 !
r0.000000000000000 "

#125500000
r0.000000000000000 !
r0.000000000000000 "

#126000000
r0.000000000000000 !
r0.000000000000000 "

#126500000
r0.000000000000000 !
r0.000000000000000 "

#127000000
r0.000000000000000 !
r0.000000000000000 "

#127500000
r0.000000000000000 !
r0.000000000000000 "

#128000000
r0.000000000000000 !
r0.000000000000000 "

#128500000
r0.000000000000000 !
r0.000000000000000 "

#129000000
r0.000000000000000 !
r0.000000000000000 "

#129500000
r0.000000000000000 !
r0.000000000000000 "

#130000000
r0.000000000000000 !
r0.000000000000000 "

#130500000
r0.000000000000000 !
r0.000000000000000 "

#131000000
r0.000000000000000 !
r0.000000000000000 "

#131500000
r0.000000000000000 !
r0.000000000000000 "

#132000000
r0.000000000000000 !
r0.000000000000000 "

#132500000
r0.000000000000000 !
r0.000000000000000 "

#133000000
r0.000000000000000 !
r0.000000000000000 "

#133500000
r0.000000000000000 !
r0.000000000000000 "

#134000000
r0.000000000000000 !
r0.000000000000000 "

#134500000
r0.000000000000000 !
r0.000000000000000 "

#135000000
r0.000000000000000 !
r0.000000000000000 "

#135500000
r0.000000000000000 !
r0.000000000000000 "

#136000000
r0.000000000000000 !
r0.000000000000000 "

#136500000
r0.000000000000000 !
r0.000000000000000 "

#137000000
r0.000000000000000 !
r0.000000000000000 "

#137500000
r0.000000000000000 !
r0.000000000000000 "

#138000000
r0.000000000000000 !
r0.000000000000000 "

#138500000
r0.000000000000000 !
r0.000000000000000 "

#139000000
r0.000000000000000 !
r0.000000000000000 "

#139500000
r0.000000000000000 !
r0.000000000000000 "

#140000000
r0.000000000000000 !
r0.000000000000000 "

#140500000
r0.000000000000000 !
r0.000000000000000 "

#141000000
r0.000000000000000 !
r0.000000000000000 "

#141500000
r0.000000000000000 !
r0.000000000000000 "

#142000000
r0.000000000000000 !
r0.000000000000000 "

#142500000
r0.000000000000000 !
r0.000000000000000 "

#143000000
r0.000000000000000 !
r0.000000000000000 "

#143500000
r0.000000000000000 !
r0.000000000000000 "

#144000000
r0.000000000000000 !
r0.000000000000000 "

#144500000
r0.000000000000000 !
r0.000000000000000 "

#145000000
r0.000000000000000 !
r0.000000000000000 "

#145500000
r0.000000000000000 !
r0.000000000000000 "

#146000000
r0.000000000000000 !
r0.000000000000000 "

#146500000
r0.000000000000000 !
r0.000000000000000 "

#147000000
r0.000000000000000 !
r0.000000000000000 "

#147500000
r0.000000000000000 !
r0.000000000000000 "

#148000000
r0.000000000000000 !
r0.000000000000000 "

#148500000
r0.000000000000000 !
r0.000000000000000 "

#149000000
r0.000000000000000 !
r0.000000000000000 "

#149500000
r0.000000000000000 !
r0.000000000000000 "

#150000000
r0.000000000000000 !
r0.000000000000000 "

#150500000
r0.000000000000000 !
r0.000000000000000 "

#151000000
r0.000000000000000 !
r0.000000000000000 "

#151500000
r0.000000000000000 !
r0.000000000000000 "

#152000000
r0.000000000000000 !
r0.000000000000000 "

#152500000
r0.000000000000000 !
r0.000000000000000 "

#153000000
r0.000000000000000 !
r0.000000000000000 "

#153500000
r0.000000000000000 !
r0.000000000000000 "

#154000000
r0.000000000000000 !
r0.000000000000000 "

#154500000
r0.000000000000000 !
r0.000000000000000 "

#155000000
r0.000000000000000 !
r0.000000000000000 "

#155500000
r0.000000000000000 !
r0.000000000000000 "

#156000000
r0.000000000000000 !
r0.000000000000000 "

#156500000
r0.000000000000000 !
r0.000000000000000 "

#157000000
r0.000000000000000 !
r0.000000000000000 "

#157500000
r0.000000000000000 !
r0.000000000000000 "

#158000000
r0.000000000000000 !
r0.000000000000000 "

#158500000
r0.000000000000000 !
r0.000000000000000 "

#159000000
r0.000000000000000 !
r0.000000000000000 "

#159500000
r0.000000000000000 !
r0.000000000000000 "

#160000000
r0.000000000000000 !
r0.000000000000000 "

#160500000
r0.000000000000000 !
r0.000000000000000 "

#161000000
r0.000000000000000 !
r0.000000000000000 "

#161500000
r0.000000000000000 !
r0.000000000000000 "

#162000000
r0.000000000000000 !
r0.000000000000000 "

#162500000
r0.000000000000000 !
r0.000000000000000 "

#163000000
r0.000000000000000 !
r0.000000000000000 "

#163500000
r0.000000000000000 !
r0.000000000000000 "

#164000000
r0.000000000000000 !
r0.000000000000000 "

#164500000
r0.000000000000000 !
r0.000000000000000 "

#165000000
r0.000000000000000 !
r0.000000000000000 "

#165500000
r0.000000000000000 !
r0.000000000000000 "

#166000000
r0.000000000000000 !
r0.000000000000000 "

#166500000
r0.000000000000000 !
r0.000000000000000 "

#167000000
r0.000000000000000 !
r0.000000000000000 "

#167500000
r0.000000000000000 !
r0.000000000000000 "

#168000000
r0.000000000000000 !
r0.000000000000000 "

#168500000
r0.000000000000000 !
r0.000000000000000 "

#169000000
r0.000000000000000 !
r0.000000000000000 "

#169500000
r0.000000000000000 !
r0.000000000000000 "

#170000000
r0.000000000000000 !
r0.000000000000000 "

#170500000
r0.000000000000000 !
r0.000000000000000 "

#171000000
r0.000000000000000 !
r0.000000000000000 "

#171500000
r0.000000000000000 !
r0.000000000000000 "

#172000000
r0.000000000000000 !
r0.000000000000000 "

#172500000
r0.000000000000000 !
r0.000000000000000 "

#173000000
r0.000000000000000 !
r0.000000000000000 "

#173500000
r0.000000000000000 !
r0.000000000000000 "

#174000000
r0.000000000000000 !
r0.000000000000000 "

#174500000
r0.000000000000000 !
r0.000000000000000 "

#175000000
r0.000000000000000 !
r0.000000000000000 "

#175500000
r0.000000000000000 !
r0.000000000000000 "

#176000000
r0.000000000000000 !
r0.000000000000000 "

#176500000
r0.000000000000000 !
r0.000000000000000 "

#177000000
r0.000000000000000 !
r0.000000000000000 "

#177500000
r0.000000000000000 !
r0.000000000000000 "

#178000000
r0.000000000000000 !
r0.000000000000000 "

#178500000
r0.000000000000000 !
r0.000000000000000 "

#179000000
r0.000000000000000 !
r0.000000000000000 "

#179500000
r0.000000000000000 !
r0.000000000000000 "

#180000000
r0.000000000000000 !
r0.000000000000000 "

#180500000
r0.000000000000000 !
r0.000000000000000 "

#181000000
r0.000000000000000 !
r0.000000000000000 "

#181500000
r0.000000000000000 !
r0.000000000000000 "

#182000000
r0.000000000000000 !
r0.000000000000000 "

#182500000
r0.000000000000000 !
r0.000000000000000 "

#183000000
r0.000000000000000 !
r0.000000000000000 "

#183500000
r0.000000000000000 !
r0.000000000000000 "

#184000000
r0.000000000000000 !
r0.000000000000000 "

#184500000
r0.000000000000000 !
r0.000000000000000 "

#185000000
r0.000000000000000 !
r0.000000000000000 "

#185500000
r0.000000000000000 !
r0.000000000000000 "

#186000000
r0.000000000000000 !
r0.000000000000000 "

#186500000
r0.000000000000000 !
r0.000000000000000 "

#187000000
r0.000000000000000 !
r0.000000000000000 "

#187500000
r0.000000000000000 !
r0.000000000000000 "

#188000000
r0.000000000000000 !
r0.000000000000000 "

#188500000
r0.000000000000000 !
r0.000000000000000 "

#189000000
r0.000000000000000 !
r0.000000000000000 "

#189500000
r0.000000000000000 !
r0.000000000000000 "

#190000000
r0.000000000000000 !
r0.000000000000000 "

#190500000
r0.000000000000000 !
r0.000000000000000 "

#191000000
r0.000000000000000 !
r0.000000000000000 "

#191500000
r0.000000000000000 !
r0.000000000000000 "

#192000000
r0.000000000000000 !
r0.000000000000000 "

#192500000
r0.000000000000000 !
r0.000000000000000 "

#193000000
r0.000000000000000 !
r0.000000000000000 "

#193500000
r0.000000000000000 !
r0.000000000000000 "

#194000000
r0.000000000000000 !
r0.000000000000000 "

#194500000
r0.000000000000000 !
r0.000000000000000 "

#195000000
r0.000000000000000 !
r0.000000000000000 "

#195500000
r0.000000000000000 !
r0.000000000000000 "

#196000000
r0.000000000000000 !
r0.000000000000000 "

#196500000
r0.000000000000000 !
r0.000000000000000 "

#197000000
r0.000000000000000 !
r0.000000000000000 "

#197500000
r0.000000000000000 !
r0.000000000000000 "

#198000000
r0.000000000000000 !
r0.000000000000000 "

#198500000
r0.000000000000000 !
r0.000000000000000 "

#199000000
r0.000000000000000 !
r0.000000000000000 "

#199500000
r0.000000000000000 !
r0.000000000000000 "

#200000000
r0.000000000000000 !
r0.000000000000000 "

#200500000
r0.000000000000000 !
r0.000000000000000 "

#201000000
r0.000000000000000 !
r0.000000000000000 "

#201500000
r0.000000000000000 !
r0.000000000000000 "

#202000000
r0.000000000000000 !
r0.000000000000000 "

#202500000
r0.000000000000000 !
r0.000000000000000 "

#203000000
r0.000000000000000 !
r0.000000000000000 "

#203500000
r0.000000000000000 !
r0.000000000000000 "

#204000000
r0.000000000000000 !
r0.000000000000000 "

#204500000
r0.000000000000000 !
r0.000000000000000 "

#205000000
r0.000000000000000 !
r0.000000000000000 "

#205500000
r0.000000000000000 !
r0.000000000000000 "

#206000000
r0.000000000000000 !
r0.000000000000000 "

#206500000
r0.000000000000000 !
r0.000000000000000 "

#207000000
r0.000000000000000 !
r0.000000000000000 "

#207500000
r0.000000000000000 !
r0.000000000000000 "

#208000000
r0.000000000000000 !
r0.000000000000000 "

#208500000
r0.000000000000000 !
r0.000000000000000 "

#209000000
r0.000000000000000 !
r0.000000000000000 "

#209500000
r0.000000000000000 !
r0.000000000000000 "

#210000000
r0.000000000000000 !
r0.000000000000000 "

#210500000
r0.000000000000000 !
r0.000000000000000 "

#211000000
r0.000000000000000 !
r0.000000000000000 "

#211500000
r0.000000000000000 !
r0.000000000000000 "

#212000000
r0.000000000000000 !
r0.000000000000000 "

#212500000
r0.000000000000000 !
r0.000000000000000 "

#213000000
r0.000000000000000 !
r0.000000000000000 "

#213500000
r0.000000000000000 !
r0.000000000000000 "

#214000000
r0.000000000000000 !
r0.000000000000000 "

#214500000
r0.000000000000000 !
r0.000000000000000 "

#215000000
r0.000000000000000 !
r0.000000000000000 "

#215500000
r0.000000000000000 !
r0.000000000000000 "

#216000000
r0.000000000000000 !
r0.000000000000000 "

#216500000
r0.000000000000000 !
r0.000000000000000 "

#217000000
r0.000000000000000 !
r0.000000000000000 "

#217500000
r0.000000000000000 !
r0.000000000000000 "

#218000000
r0.000000000000000 !
r0.000000000000000 "

#218500000
r0.000000000000000 !
r0.000000000000000 "

#219000000
r0.000000000000000 !
r0.000000000000000 "

#219500000
r0.000000000000000 !
r0.000000000000000 "

#220000000
r0.000000000000000 !
r0.000000000000000 "

#220500000
r0.000000000000000 !
r0.000000000000000 "

#221000000
r0.000000000000000 !
r0.000000000000000 "

#221500000
r0.000000000000000 !
r0.000000000000000 "

#222000000
r0.000000000000000 !
r0.000000000000000 "

#222500000
r0.000000000000000 !
r0.000000000000000 "

#223000000
r0.000000000000000 !
r0.000000000000000 "

#223500000
r0.000000000000000 !
r0.000000000000000 "

#224000000
r0.000000000000000 !
r0.000000000000000 "

#224500000
r0.000000000000000 !
r0.000000000000000 "

#225000000
r0.000000000000000 !
r0.000000000000000 "

#225500000
r0.000000000000000 !
r0.000000000000000 "

#226000000
r0.000000000000000 !
r0.000000000000000 "

#226500000
r0.000000000000000 !
r0.000000000000000 "

#227000000
r0.000000000000000 !
r0.000000000000000 "

#227500000
r0.000000000000000 !
r0.000000000000000 "

#228000000
r0.000000000000000 !
r0.000000000000000 "

#228500000
r0.000000000000000 !
r0.000000000000000 "

#229000000
r0.000000000000000 !
r0.000000000000000 "

#229500000
r0.000000000000000 !
r0.000000000000000 "

#230000000
r0.000000000000000 !
r0.000000000000000 "

#230500000
r0.000000000000000 !
r0.000000000000000 "

#231000000
r0.000000000000000 !
r0.000000000000000 "

#231500000
r0.000000000000000 !
r0.000000000000000 "

#232000000
r0.000000000000000 !
r0.000000000000000 "

#232500000
r0.000000000000000 !
r0.000000000000000 "

#233000000
r0.000000000000000 !
r0.000000000000000 "

#233500000
r0.000000000000000 !
r0.000000000000000 "

#234000000
r0.000000000000000 !
r0.000000000000000 "

#234500000
r0.000000000000000 !
r0.000000000000000 "

#235000000
r0.000000000000000 !
r0.000000000000000 "

#235500000
r0.000000000000000 !
r0.000000000000000 "

#236000000
r0.000000000000000 !
r0.000000000000000 "

#236500000
r0.000000000000000 !
r0.000000000000000 "

#237000000
r0.000000000000000 !
r0.000000000000000 "

#237500000
r0.000000000000000 !
r0.000000000000000 "

#238000000
r0.000000000000000 !
r0.000000000000000 "

#238500000
r0.000000000000000 !
r0.000000000000000 "

#239000000
r0.000000000000000 !
r0.000000000000000 "

#239500000
r0.000000000000000 !
r0.000000000000000 "

#240000000
r0.000000000000000 !
r0.000000000000000 "

#240500000
r0.000000000000000 !
r0.000000000000000 "

#241000000
r0.000000000000000 !
r0.000000000000000 "

#241500000
r0.000000000000000 !
r0.000000000000000 "

#242000000
r0.000000000000000 !
r0.000000000000000 "

#242500000
r0.000000000000000 !
r0.000000000000000 "

#243000000
r0.000000000000000 !
r0.000000000000000 "

#243500000
r0.000000000000000 !
r0.000000000000000 "

#244000000
r0.000000000000000 !
r0.000000000000000 "

#244500000
r0.000000000000000 !
r0.000000000000000 "

#245000000
r0.000000000000000 !
r0.000000000000000 "

#245500000
r0.000000000000000 !
r0.000000000000000 "

#246000000
r0.000000000000000 !
r0.000000000000000 "

#246500000
r0.000000000000000 !
r0.000000000000000 "

#247000000
r0.000000000000000 !
r0.000000000000000 "

#247500000
r0.000000000000000 !
r0.000000000000000 "

#248000000
r0.000000000000000 !
r0.000000000000000 "

#248500000
r0.000000000000000 !
r0.000000000000000 "

#249000000
r0.000000000000000 !
r0.000000000000000 "

#249500000
r0.000000000000000 !
r0.000000000000000 "

#250000000
r0.000000000000000 !
r0.000000000000000 "

#250500000
r0.000000000000000 !
r0.000000000000000 "

#251000000
r0.000000000000000 !
r0.000000000000000 "

#251500000
r0.000000000000000 !
r0.000000000000000 "

#252000000
r0.000000000000000 !
r0.000000000000000 "

#252500000
r0.000000000000000 !
r0.000000000000000 "

#253000000
r0.000000000000000 !
r0.000000000000000 "

#253500000
r0.000000000000000 !
r0.000000000000000 "

#254000000
r0.000000000000000 !
r0.000000000000000 "

#254500000
r0.000000000000000 !
r0.000000000000000 "

#255000000
r0.000000000000000 !
r0.000000000000000 "

#255500000
r0.000000000000000 !
r0.000000000000000 "

#256000000
r0.000000000000000 !
r0.000000000000000 "

#256500000
r0.000000000000000 !
r0.000000000000000 "

#257000000
r0.000000000000000 !
r0.000000000000000 "

#257500000
r0.000000000000000 !
r0.000000000000000 "

#258000000
r0.000000000000000 !
r0.000000000000000 "

#258500000
r0.000000000000000 !
r0.000000000000000 "

#259000000
r0.000000000000000 !
r0.000000000000000 "

#259500000
r0.000000000000000 !
r0.000000000000000 "

#260000000
r0.000000000000000 !
r0.000000000000000 "

#260500000
r0.000000000000000 !
r0.000000000000000 "

#261000000
r0.000000000000000 !
r0.000000000000000 "

#261500000
r0.000000000000000 !
r0.000000000000000 "

#262000000
r0.000000000000000 !
r0.000000000000000 "

#262500000
r0.000000000000000 !
r0.000000000000000 "

#263000000
r0.000000000000000 !
r0.000000000000000 "

#263500000
r0.000000000000000 !
r0.000000000000000 "

#264000000
r0.000000000000000 !
r0.000000000000000 "

#264500000
r0.000000000000000 !
r0.000000000000000 "

#265000000
r0.000000000000000 !
r0.000000000000000 "

#265500000
r0.000000000000000 !
r0.000000000000000 "

#266000000
r0.000000000000000 !
r0.000000000000000 "

#266500000
r0.000000000000000 !
r0.000000000000000 "

#267000000
r0.000000000000000 !
r0.000000000000000 "

#267500000
r0.000000000000000 !
r0.000000000000000 "

#268000000
r0.000000000000000 !
r0.000000000000000 "

#268500000
r0.000000000000000 !
r0.000000000000000 "

#269000000
r0.000000000000000 !
r0.000000000000000 "

#269500000
r0.000000000000000 !
r0.000000000000000 "

#270000000
r0.000000000000000 !
r0.000000000000000 "

#270500000
r0.000000000000000 !
r0.000000000000000 "

#271000000
r0.000000000000000 !
r0.000000000000000 "

#271500000
r0.000000000000000 !
r0.000000000000000 "

#272000000
r0.000000000000000 !
r0.000000000000000 "

#272500000
r0.000000000000000 !
r0.000000000000000 "

#273000000
r0.000000000000000 !
r0.000000000000000 "

#273500000
r0.000000000000000 !
r0.000000000000000 "

#274000000
r0.000000000000000 !
r0.000000000000000 "

