ams-lab2a/meme.vcd
$date
    Fri Feb 12 10:02:36 2016
$end

$version
    2.0.beta1
$end

$timescale
      1 ps
$end

$scope module SystemC_AMS $end

$var real 1 !  sig_in $end
$var real 1 "  sig_out $end

$upscope $end

$enddefinitions $end


#0
r0.3517311651366813 !
r0.000000000000000 "

#1000000
r0.1922843102090006 !
r0.001200614270760721 "

#2000000
r-0.2251802010361751 !
r0.001090072377459054 "

#3000000
r-0.5435782053412328 !
r-0.001324317481702976 "

#4000000
r-0.1265080441921220 !
r-0.003414567873091673 "

#5000000
r-0.7183810403820304 !
r-0.006039165435177780 "

#6000000
r0.2739579047575700 !
r-0.007393162988843416 "

#7000000
r-0.3265293744071532 !
r-0.007511496762105132 "

#8000000
r-0.1132738263303115 !
r-0.008841803857478799 "

#9000000
r-0.3522181406712684 !
r-0.01024422945926198 "

#10000000
r0.01500423811057516 !
r-0.01123613562110210 "

#11000000
r0.2671642028561694 !
r-0.01028207586476370 "

#12000000
r0.7033346330139388 !
r-0.007178310430363117 "

#13000000
r-0.002029364828506895 !
r-0.004937033476494447 "

#14000000
r-0.2371188874729888 !
r-0.005655063814009710 "

#15000000
r0.04877153113603869 !
r-0.006209500855796229 "

#16000000
r-0.07209274580257091 !
r-0.006243643904372760 "

#17000000
r-0.4200788520029587 !
r-0.007745897140969024 "

#18000000
r0.01713737836664921 !
r-0.008959294207952917 "

#19000000
r-0.3358456611528262 !
r-0.009901293523931315 "

#20000000
r0.2488362623744306 !
r-0.01011176872259726 "

#21000000
r-0.02199355477217400 !
r-0.009338018031692425 "

#22000000
r-0.5391560973402797 !
r-0.01103691192606069 "

#23000000
r-0.2027078813473568 !
r-0.01329111759265635 "

#24000000
r0.04920138564655994 !
r-0.01368861314793780 "

#25000000
r0.01220261279316221 !
r-0.01341057219594393 "

#26000000
r-0.03336659170603341 !
r-0.01339285534556191 "

#27000000
r0.1009512093242681 !
r-0.01309731069632722 "

#28000000
r-0.2817979840120526 !
r-0.01358164318957835 "

#29000000
r0.4165132159817124 !
r-0.01307467949896578 "

#30000000
r0.1598920706937620 !
r-0.01118762660224906 "

#31000000
r-0.05039138565519288 !
r-0.01077462361064372 "

#32000000
r0.3080038766520359 !
r-0.009900357731956055 "

#33000000
r-0.07664172242000829 !
r-0.009113777420592399 "

#34000000
r-0.3396301140046823 !
r-0.01036035417504465 "

#35000000
r0.1672650419519182 !
r-0.01083526701133369 "

#36000000
r0.1255348798764012 !
r-0.009850422916434658 "

#37000000
r-0.03512837569900216 !
r-0.009505593787195321 "

#38000000
r-0.1248478104622164 !
r-0.009947061479510022 "

#39000000
r0.08364191411683893 !
r-0.01001380471017245 "

#40000000
r-0.02918722415691104 !
r-0.009780544474260423 "

#41000000
r0.6137228275443996 !
r-0.007888662266804123 "

#42000000
r0.2528066766961303 !
r-0.005125494363301463 "

#43000000
r0.3198671733082225 !
r-0.003299917192178639 "

#44000000
r-0.09172788895676565 !
r-0.002564772027895497 "

#45000000
r-0.2637598114736646 !
r-0.003662007570965960 "

#46000000
r0.4482503512171506 !
r-0.003061291579432232 "

#47000000
r-0.008930603145603648 !
r-0.001666275795379681 "

#48000000
r0.4863830408238604 !
r-0.0001605755021157188 "

#49000000
r0.4233703393062890 !
r0.002689554013168232 "

#50000000
r-0.2414714908626555 !
r0.003242370408949021 "

#51000000
r0.1562001370172654 !
r0.002955012896283489 "

#52000000
r-0.2225962899049345 !
r0.002728567734987676 "

#53000000
r-0.1108626692908462 !
r0.001667165913965824 "

#54000000
r-0.2194056705334637 !
r0.0006224044264989935 "

#55000000
r-0.2093635224089062 !
r-0.0007242936257744564 "

#56000000
r-0.2125882096466497 !
r-0.002041206014017803 "

#57000000
r0.2637078868504047 !
r-0.001868326652556325 "

#58000000
r0.02397246105291730 !
r-0.0009556803054880143 "

#59000000
r0.2174570297805876 !
r-0.0001935966307457390 "

#60000000
r0.01244450902370242 !
r0.0005276110174672895 "

#61000000
r-0.05026833097554725 !
r0.0004058514175643878 "

#62000000
r0.1385924045092944 !
r0.0006799186309053721 "

#63000000
r0.1135899943696287 !
r0.001465433181096099 "

#64000000
r-0.3540268599083635 !
r0.0007032653233779457 "

#65000000
r-0.6496650326108462 !
r-0.002444455641914823 "

#66000000
r0.7053723679189980 !
r-0.002254683106788544 "

#67000000
r0.09410491306466494 !
r0.0002632052580410866 "

#68000000
r0.06096003206549888 !
r0.0007471819255381005 "

#69000000
r0.06445777543677732 !
r0.001135279660726516 "

#70000000
r0.4281157722363680 !
r0.002670787985293330 "

#71000000
r0.02204232409307019 !
r0.004063843883671688 "

#72000000
r0.6623896616264482 !
r0.006181862545840210 "

#73000000
r-0.1103322580683928 !
r0.007872050359679878 "

#74000000
r0.2361196120794092 !
r0.008216678753766984 "

#75000000
r0.1948129830303586 !
r0.009514788381865544 "

#76000000
r0.3648664621972096 !
r0.01120797074751471 "

#77000000
r-0.2283162573124693 !
r0.01156541117867010 "

#78000000
r-0.2037855030667518 !
r0.01013973473570981 "

#79000000
r-0.3772158632835541 !
r0.008256671098038300 "

#80000000
r0.003466399347507363 !
r0.007034464010132813 "

#81000000
r-0.5535387762834821 !
r0.005267712245260969 "

#82000000
r0.1069435596998361 !
r0.003836091550588681 "

#83000000
r-0.2386350164905598 !
r0.003399638919705574 "

#84000000
r0.2103830164342536 !
r0.003289866941410037 "

#85000000
r-0.1381951177153028 !
r0.003495335571336414 "

#86000000
r-0.5342421458603867 !
r0.001367534447360903 "

#87000000
r0.1971291216930572 !
r0.0003032138366722662 "

#88000000
r0.6427001993046358 !
r0.002931453454788264 "

#89000000
r-0.05646192195775717 !
r0.004749046318490722 "

#90000000
r0.1824906553955225 !
r0.005113991614088964 "

#91000000
r0.03671757690412691 !
r0.005768466336337888 "

#92000000
r-0.2341330636056612 !
r0.005114078769853526 "

#93000000
r0.4471310100278877 !
r0.005749103858822453 "

#94000000
r-0.1644478288308043 !
r0.006598388472964805 "

#95000000
r0.4306318254940604 !
r0.007390682199729376 "

#96000000
r0.3774271934035472 !
r0.009875032634283566 "

#97000000
r0.2053994756235167 !
r0.01163845001696491 "

#98000000
r0.1679272141301054 !
r0.01273471983154311 "

#99000000
r0.2514231938075969 !
r0.01396825811306035 "

#100000000
r0.02160083703151282 !
r0.01473581190709452 "

#101000000
r-0.1134771930845234 !
r0.01435577989080627 "

#102000000
r0.08829597426885252 !
r0.01418700096810714 "

#103000000
r-0.2611184891218004 !
r0.01355690298024417 "

#104000000
r0.4790497864016527 !
r0.01415449641400817 "

#105000000
r0.3083377615152749 !
r0.01653174368361509 "

#106000000
r0.3025218010637963 !
r0.01834125882928542 "

#107000000
r-0.1789216531033446 !
r0.01861346346203473 "

#108000000
r0.3110326812947344 !
r0.01891061712176422 "

#109000000
r-0.4166191028316727 !
r0.01846149962811443 "

#110000000
r0.3243017110805752 !
r0.01805675052199707 "

#111000000
r-0.2339258900938428 !
r0.01822668675726761 "

#112000000
r-0.1775256336477356 !
r0.01682395882231634 "

#113000000
r0.1261678706431601 !
r0.01655774194545999 "

#114000000
r0.4496493228097366 !
r0.01825735017259018 "

#115000000
r-0.08911371670728252 !
r0.01927210392678736 "

#116000000
r-0.02112191499052629 !
r0.01880616207534795 "

#117000000
r-0.2397098439919147 !
r0.01787150863664623 "

#118000000
r0.3552523033795844 !
r0.01812142085536296 "

#119000000
r-0.03899281259515878 !
r0.01899836410450660 "

#120000000
r-0.01137011878055080 !
r0.01872164339084268 "

#121000000
r-0.3022333127936708 !
r0.01762225144106180 "

#122000000
r0.1343103328473837 !
r0.01698598087250361 "

#123000000
r0.7918739768059215 !
r0.01978017042476430 "

#124000000
r0.2409031702237212 !
r0.02289068108902990 "

#125000000
r-0.1925519133469505 !
r0.02289872936692516 "

#126000000
r-0.001297654479683746 !
r0.02214821384288483 "

#127000000
r-0.2975356145827884 !
r0.02107361605686220 "

#128000000
r-0.06301557610962630 !
r0.01981246367721320 "

#129000000
r0.2419068826552861 !
r0.02024861171151200 "

#130000000
r0.1269293536662146 !
r0.02127688871484126 "

#131000000
r-0.01583299992843416 !
r0.02149154719951044 "

#132000000
r-0.3438824147351733 !
r0.02023039454972734 "

#133000000
r0.2076992912836545 !
r0.01967718927737539 "

#134000000
r-0.2491411457842017 !
r0.01942415535468378 "

#135000000
r-0.2836339650346484 !
r0.01763397144162073 "

#136000000
r-0.08447095845511325 !
r0.01637070687066151 "

#137000000
r-0.03712699847419428 !
r0.01588735393563276 "

#138000000
r0.1772552659417660 !
r0.01622669062480104 "

#139000000
r0.2296851785754830 !
r0.01739949196754461 "

#140000000
r-0.01423646281473512 !
r0.01796524248026654 "

#141000000
r0.2788808827384407 !
r0.01868151825141985 "

#142000000
r0.02801078172784821 !
r0.01952561559893609 "

#143000000
r0.5035012859778604 !
r0.02106788177300746 "

#144000000
r0.3648706337223961 !
r0.02365545012558478 "

#145000000
r-0.3624201608192578 !
r0.02351495830466380 "

#146000000
r0.4274006862173100 !
r0.02357117519479289 "

#147000000
r0.2212955966160448 !
r0.02545509410389150 "

#148000000
r-0.1094724981090192 !
r0.02564585835183647 "

#149000000
r0.2147684924573920 !
r0.02581498646211870 "

#150000000
r-0.1959045910743520 !
r0.02571237118786961 "

#151000000
r-0.4644648574012132 !
r0.02348320691313242 "

#152000000
r-0.2582651377236692 !
r0.02107270713766315 "

#153000000
r-0.4091486858406135 !
r0.01885054218586709 "

#154000000
r0.08042154893676334 !
r0.01770297915343198 "

#155000000
r-0.07080485977606367 !
r0.01762221350770023 "

#156000000
r0.5792646877453583 !
r0.01910420771279515 "

#157000000
r-0.3048176150310777 !
r0.01984404906287698 "

#158000000
r0.7892156589913127 !
r0.02123677119606678 "

#159000000
r0.3748697523126039 !
r0.02474938360627634 "

#160000000
r-0.1059509449286751 !
r0.02543655318562685 "

#161000000
r-0.02873314157860104 !
r0.02485543371232710 "

#162000000
r0.7515457112140446 !
r0.02696342263260551 "

#163000000
r0.5351543382622930 !
r0.03082416499465552 "

#164000000
r-0.1614331565876367 !
r0.03180150038321822 "

#165000000
r-0.03245716709022416 !
r0.03099509464513818 "

#166000000
r0.2682704381277569 !
r0.03153946576945472 "

#167000000
r-0.1029376224697584 !
r0.03185969977580250 "

#168000000
r-0.1665662599118712 !
r0.03081612644358994 "

#169000000
r0.02885114468433784 !
r0.03019181953440777 "

#170000000
r-0.2289306990662685 !
r0.02937611289731096 "

#171000000
r0.1277873844661802 !
r0.02887535940575549 "

#172000000
r-0.2237427797589588 !
r0.02839398967448504 "

#173000000
r-0.3928541713367527 !
r0.02628511375306403 "

#174000000
r-0.2284181946407985 !
r0.02417480454360904 "

#175000000
r0.2891423749487478 !
r0.02421355865601259 "

#176000000
r-0.4075456975408281 !
r0.02369108676546774 "

#177000000
r-0.5765507304473038 !
r0.02046074957219537 "

#178000000
r-0.4265682387974387 !
r0.01719107170262826 "

#179000000
r0.03622319984952908 !
r0.01586093066807007 "

#180000000
r0.01090457837141829 !
r0.01590917820925625 "

#181000000
r-0.4708295415922478 !
r0.01436915912147799 "

#182000000
r-0.2800371225786794 !
r0.01192762813184508 "

#183000000
r-0.4053399900501128 !
r0.009706486853168049 "

#184000000
r0.03203670931269037 !
r0.008476596168800962 "

#185000000
r0.1855378236016186 !
r0.009104892846283826 "

#186000000
r0.3566527726605634 !
r0.01074587182389061 "

#187000000
r0.03668471405993525 !
r0.01191040120165841 "

#188000000
r0.4023018726689847 !
r0.01321059829009631 "

#189000000
r0.1466243322153180 !
r0.01484695541811634 "

#190000000
r-0.2736348510983130 !
r0.01435619570005039 "

#191000000
r0.3249785833354795 !
r0.01442707149129990 "

#192000000
r-0.1336505180945058 !
r0.01493589984046306 "

#193000000
r-0.3750572443156609 !
r0.01324920116499175 "

#194000000
r0.5556876091617666 !
r0.01373190454871162 "

#195000000
r-0.2786250490122545 !
r0.01451358642532105 "

#196000000
r0.1257335840689892 !
r0.01394386201131028 "

#197000000
r-0.3298381136235262 !
r0.01321731935286085 "

#198000000
r0.1107606358201806 !
r0.01244843581015790 "

#199000000
r0.3421833934650964 !
r0.01378897419054047 "

#200000000
r0.04017204455042671 !
r0.01490004999804064 "

#201000000
r-0.3884297279548601 !
r0.01371606603838676 "

#202000000
r0.3021184816786278 !
r0.01335984976299235 "

#203000000
r-0.2528815431560819 !
r0.01343036821535120 "

#204000000
r0.3411911232840338 !
r0.01362281087483679 "

#205000000
r0.03329624428655360 !
r0.01471028658681975 "

#206000000
r0.02748075694564912 !
r0.01480848720451223 "

#207000000
r-0.1003005553643575 !
r0.01448768043572721 "

#208000000
r0.3931856836425967 !
r0.01531418089445364 "

#209000000
r0.1463336780474269 !
r0.01690790229776843 "

#210000000
r0.3148783373676353 !
r0.01824640207279113 "

#211000000
r0.2164745285666228 !
r0.01979618203013276 "

#212000000
r0.1998730754907215 !
r0.02097608674432700 "

#213000000
r-0.4692766159780113 !
r0.02000099725462441 "

#214000000
r-0.03532339222836251 !
r0.01829543777688824 "

#215000000
r0.09951385604986730 !
r0.01838187289669485 "

#216000000
r0.2615230393747223 !
r0.01939741661664266 "

#217000000
r-0.4368026603250670 !
r0.01872698809736904 "

#218000000
r0.3591236112865402 !
r0.01836641978985664 "

#219000000
r0.04054469779070972 !
r0.01950304438308530 "

#220000000
r0.02453827807053608 !
r0.01958471077746704 "

#221000000
r0.6001122391426023 !
r0.02141829351634037 "

#222000000
r0.4028830837910535 !
r0.02442527443815348 "

#223000000
r-0.3192189838816358 !
r0.02453430191440604 "

#224000000
r0.004623448013684481 !
r0.02339539530539662 "

#225000000
r0.3759624188764443 !
r0.02444075935681597 "

#226000000
r0.6632404170104995 !
r0.02754220206192312 "

#227000000
r-0.3424610679637813 !
r0.02837429325740193 "

#228000000
r-0.4663886675640280 !
r0.02566345228599403 "

#229000000
r0.09636590888629262 !
r0.02434388881025748 "

#230000000
r0.6780138170829687 !
r0.02661657744204964 "

#231000000
r-0.002690102540538238 !
r0.02856481201471885 "

#232000000
r0.5387820968034370 !
r0.03006480431360363 "

#233000000
r-0.2168464560126740 !
r0.03088471639115473 "

#234000000
r0.06462544943392468 !
r0.03021455098563425 "

#235000000
r0.5341054414306146 !
r0.03190037974379375 "

#236000000
r-0.06364520076558278 !
r0.03317393718367639 "

#237000000
r0.1057356785885115 !
r0.03309796898602885 "

#238000000
r-0.6406929611948070 !
r0.03121530500790091 "

#239000000
r-0.4774569508237163 !
r0.02751801728485561 "

#240000000
r0.2023467099347006 !
r0.02648408037984949 "

#241000000
r-0.4202958590696957 !
r0.02563563402219818 "

#242000000
r0.2323625243941536 !
r0.02488650406077176 "

#243000000
r0.1306889640642651 !
r0.02586761518163620 "

#244000000
r-0.5315692278517996 !
r0.02445013481621373 "

#245000000
r0.6342667223876850 !
r0.02461861448825399 "

#246000000
r0.1486747311538188 !
r0.02691639559780187 "

#247000000
r-0.1105440459282929 !
r0.02686722046527547 "

#248000000
r0.07551113242824385 !
r0.02658922295166418 "

#249000000
r-0.4126895262566146 !
r0.02536672137366100 "

#250000000
r-0.1599213917162909 !
r0.02341456020455321 "

#251000000
r0.5500582390681703 !
r0.02448971553734228 "

#252000000
r0.5297999858997323 !
r0.02771817428070815 "

#253000000
r-0.2132155216150092 !
r0.02853602592584323 "

#254000000
r0.1208798418450485 !
r0.02806811767092735 "

#255000000
r0.1642713135286062 !
r0.02878533605326075 "

#256000000
r-0.4010806589871355 !
r0.02786341026798892 "

#257000000
r-0.01906129994197739 !
r0.02637310633423854 "

#258000000
r0.03050117271669906 !
r0.02624374504077085 "

#259000000
r-0.2530531025181723 !
r0.02538238924884682 "

#260000000
r0.2739733553085640 !
r0.02528892353732756 "

#261000000
r0.1337835206360005 !
r0.02640752037483456 "

#262000000
r-0.05934532232311954 !
r0.02647523878412542 "

#263000000
r0.3050836864434404 !
r0.02707900301095899 "

#264000000
r0.06207893412540605 !
r0.02805925645155171 "

#265000000
r-0.2679769782774396 !
r0.02723868506183808 "

#266000000
r-0.1593763053660953 !
r0.02572971000464278 "

#267000000
r0.1385003903244546 !
r0.02550317353276765 "

#268000000
r-0.1432916543315456 !
r0.02532842914342386 "

#269000000
r-0.1710360412368432 !
r0.02418538732214697 "

#270000000
r0.05583130394292945 !
r0.02367310906514351 "

#271000000
r-0.7865031093252873 !
r0.02123654804033131 "

#272000000
r-0.1697026642000224 !
r0.01810893153731097 "

#273000000
r-0.05750657216036183 !
r0.01728394267591574 "

#274000000
r0.08953269889967257 !
r0.01727598251331978 "

#275000000
r-0.1549928531417372 !
r0.01696276916291591 "

#276000000
r0.2280110173811696 !
r0.01708519764886357 "

#277000000
r-0.1703338440852419 !
r0.01715881509390776 "

#278000000
r-0.3454323907530166 !
r0.01543608777218164 "

#279000000
r0.3828147897754863 !
r0.01545647619032901 "

#280000000
r0.2537013721573610 !
r0.01735307643904042 "

#281000000
r-0.04567088898454373 !
r0.01789588559652129 "

#282000000
r0.1929319938229868 !
r0.01824498012340118 "

#283000000
r0.3668298662512562 !
r0.01988373896698503 "

#284000000
r0.1952261116288869 !
r0.02151941804409807 "

#285000000
r0.3259620022042129 !
r0.02301686393736330 "

#286000000
r0.1614328083053448 !
r0.02439909825497159 "

#287000000
r0.03848254777136369 !
r0.02487236001762113 "

#288000000
r-0.1244523394323161 !
r0.02444733555840950 "

#289000000
r0.04021766881972148 !
r0.02403040721547437 "

#290000000
r-0.06748303196425631 !
r0.02379450416068412 "

#291000000
r0.09889387613796864 !
r0.02374383813107568 "

#292000000
r0.8032849543863529 !
r0.02642052053661267 "

#293000000
r0.2571659226045763 !
r0.02957610662873177 "

#294000000
r0.2343415439479727 !
r0.03093013690465698 "

#295000000
r-0.4306302409510965 !
r0.03012167784346822 "

#296000000
r0.008733465863410186 !
r0.02861173358042994 "

#297000000
r0.1773904804488556 !
r0.02901541816624703 "

#298000000
r-0.4578256461715367 !
r0.02795542592454000 "

#299000000
r-0.2641091670370358 !
r0.02551940468400148 "

#300000000
r0.4323776399069589 !
r0.02588653914671099 "

#301000000
r-0.1298885359632633 !
r0.02667172005246586 "

#302000000
r0.3914374025857497 !
r0.02732376822111453 "

#303000000
r-0.2386690751403593 !
r0.02763105839673623 "

#304000000
r-0.3557761707108786 !
r0.02559633479199715 "

#305000000
r0.3388517846859788 !
r0.02538300893346208 "

#306000000
r-0.3889236189033318 !
r0.02506720959104449 "

#307000000
r0.02914753608957973 !
r0.02378347075384513 "

#308000000
r-0.2713754352486785 !
r0.02287590461447421 "

#309000000
r-0.2511012280331147 !
r0.02109635284643507 "

#310000000
r0.2784579729427112 !
r0.02104989026752596 "

#311000000
r0.04021321713248107 !
r0.02191604387412288 "

#312000000
r-0.4387665614191469 !
r0.02053060154622615 "

#313000000
r-0.06282116762333670 !
r0.01883115860501200 "

#314000000
r-0.3252847978930952 !
r0.01749775710023871 "

#315000000
r0.4220540270048725 !
r0.01769121717643486 "

#316000000
r-0.01989061913038244 !
r0.01883988494211283 "

#317000000
r-0.4374817910061723 !
r0.01728950331773733 "

#318000000
r-0.08520632251112989 !
r0.01554427980833425 "

#319000000
r0.4810573354788392 !
r0.01668662606547797 "

#320000000
r0.03914917493395187 !
r0.01821126804916406 "

#321000000
r-0.04782931871996432 !
r0.01807001755290358 "

#322000000
r0.1665050558131029 !
r0.01832849906430854 "

#323000000
r0.04961956875709293 !
r0.01889054751381468 "

#324000000
r-0.04837458797760848 !
r0.01877612539339491 "

#325000000
r-0.2523655505458052 !
r0.01771667686408916 "

#326000000
r0.2999010160467458 !
r0.01775457770053804 "

#327000000
r0.06881560357531367 !
r0.01879810149556765 "

#328000000
r-0.3353585573425356 !
r0.01784561248749699 "

#329000000
r-0.4751443645170840 !
r0.01519554061860548 "

#330000000
r0.3630302576454154 !
r0.01474924943165847 "

#331000000
r0.08540382206431919 !
r0.01606125259527266 "

#332000000
r-0.2244451671685988 !
r0.01552520952958347 "

#333000000
r-0.2784675895540601 !
r0.01385296824020954 "

#334000000
r0.1236902495466375 !
r0.01328147551673400 "

#335000000
r0.6460558331856280 !
r0.01560894223121909 "

#336000000
r-0.04812736147068514 !
r0.01738374035609242 "

#337000000
r0.1009009239128776 !
r0.01744013097382495 "

#338000000
r-0.1777762980330480 !
r0.01709013981820036 "

#339000000
r-0.1463185464983001 !
r0.01596811027990561 "

#340000000
r-0.05355515796900562 !
r0.01524213862961449 "

#341000000
r-0.5677539830415790 !
r0.01320088201191413 "

#342000000
r-0.3363684366583812 !
r0.01028670921618619 "

#343000000
r0.3294463211374102 !
r0.01020059996889055 "

#344000000
r0.03481201137595299 !
r0.01127747590494492 "

#345000000
r-0.5299170416771437 !
r0.009656292206883273 "

#346000000
r0.3049326896568619 !
r0.008891214309190390 "

#347000000
r0.3106744827767238 !
r0.01076345431704002 "

#348000000
r0.3939566833679493 !
r0.01290276877947231 "

#349000000
r0.3936644866950062 !
r0.01528858790210831 "

#350000000
r-0.07462124107819421 !
r0.01619199265809685 "

#351000000
r0.3857559099304650 !
r0.01706497121465690 "

#352000000
r0.008173881295474387 !
r0.01819177581534355 "

#353000000
r0.08903767707000533 !
r0.01838227416621448 "

#354000000
r0.4409212720171811 !
r0.01992683768301985 "

#355000000
r0.09541530816680338 !
r0.02148169998544219 "

#356000000
r0.02617675396097813 !
r0.02172794560939272 "

#357000000
r0.4561023148306537 !
r0.02310223183277718 "

#358000000
r-0.2060653922896995 !
r0.02374058494270275 "

#359000000
r0.2224414066157550 !
r0.02364317124865431 "

#360000000
r-0.3243211965037377 !
r0.02317601962310322 "

#361000000
r-0.09984719992071237 !
r0.02170246538620173 "

#362000000
r-0.04880465662109481 !
r0.02110099078230029 "

#363000000
r-0.2862793218095188 !
r0.01991942398365112 "

#364000000
r0.04862375915066317 !
r0.01905037976474950 "

#365000000
r-0.4841565958592466 !
r0.01756707587491796 "

#366000000
r-0.2403830149969124 !
r0.01518796456181337 "

#367000000
r0.2648217784098441 !
r0.01516937081959746 "

#368000000
r0.1501898982516387 !
r0.01637407180652799 "

#369000000
r0.4639508122330218 !
r0.01819485027919001 "

#370000000
r0.1386388489174116 !
r0.01996804924699822 "

#371000000
r0.4249721680542709 !
r0.02160807024583527 "

#372000000
r0.2288896778846077 !
r0.02352046235102593 "

#373000000
r-0.06498076258426932 !
r0.02388646414318785 "

#374000000
r-0.3457237184168124 !
r0.02245062570183260 "

#375000000
r-0.3084903901507560 !
r0.02026116840589147 "

#376000000
r0.08791319392599761 !
r0.01944346890977799 "

#377000000
r-0.1213256212506590 !
r0.01921704508680057 "

#378000000
r0.07382054358198421 !
r0.01894790475773224 "

#379000000
r0.2380914104161704 !
r0.01980605590287083 "

#380000000
r-0.4003937610679759 !
r0.01917370948581900 "

#381000000
r-0.2209799923667476 !
r0.01710762509272058 "

#382000000
r0.04942719932605752 !
r0.01646321020884287 "

#383000000
r0.2825139161589990 !
r0.01739965066372832 "

#384000000
r0.2409985231331574 !
r0.01893017996805248 "

#385000000
r-0.7836667144875221 !
r0.01711210737960677 "

#386000000
r-0.2317760829106812 !
r0.01382480855932145 "

#387000000
r-0.4820174196941803 !
r0.01150279113422757 "

#388000000
r-0.1210032640977399 !
r0.009542230897454809 "

#389000000
r0.5245451131301520 !
r0.01074625684175712 "

#390000000
r-0.02022385830537405 !
r0.01225835766303691 "

#391000000
r-0.1841231394675512 !
r0.01154161282361385 "

#392000000
r-0.1925036488880583 !
r0.01028981940506379 "

#393000000
r0.3386988206512891 !
r0.01068321634762134 "

#394000000
r0.1374748603232894 !
r0.01210756074771159 "

#395000000
r-0.04211840138112733 !
r0.01233035791286354 "

#396000000
r0.1883184448150579 !
r0.01271098918319711 "

#397000000
r-0.1244075044500215 !
r0.01283152714228958 "

#398000000
r0.08184737943508780 !
r0.01261786893046633 "

#399000000
r0.3724900339382159 !
r0.01396170980129169 "

#400000000
r-0.6672101144190951 !
r0.01295126974276574 "

#401000000
r-0.2040672994795091 !
r0.01014152287239252 "

#402000000
r0.5624557679081864 !
r0.01120038586822624 "

#403000000
r0.004780892487537514 !
r0.01290667781919224 "

#404000000
r-0.1935539672608657 !
r0.01223464591633972 "

#405000000
r0.5795477460150995 !
r0.01336685165930086 "

#406000000
r-0.3847040355394131 !
r0.01389333083965521 "

#407000000
r-0.3739897836074778 !
r0.01143026748065382 "

#408000000
r0.1667643697428092 !
r0.01070969489965474 "

#409000000
r-0.04612350433374147 !
r0.01102043214865006 "

#410000000
r0.05671123401278147 !
r0.01098456374897368 "

#411000000
r-0.3464681784874155 !
r0.01000831438914911 "

#412000000
r-0.06186074801415969 !
r0.008666841500854873 "

#413000000
r0.2118760765529542 !
r0.009082367769467537 "

#414000000
r-0.1012042324864354 !
r0.009372077272775363 "

#415000000
r-0.05337320396689330 !
r0.008829276694095136 "

#416000000
r0.02792994653321612 !
r0.008694292427441212 "

#417000000
r-0.1440881845540851 !
r0.008276056636273496 "

#418000000
r-0.5087412701478623 !
r0.006179718261115244 "

#419000000
r-0.7594089196176486 !
r0.002169477170268791 "

#420000000
r-0.1619233021668130 !
r-0.0007294971997016861 "

#421000000
r-0.1943402895772722 !
r-0.001840657901880700 "

#422000000
r0.4078260524820606 !
r-0.001160544043509427 "

#423000000
r-0.2481933641907390 !
r-0.0006533446632649898 "

#424000000
r-0.7356271441132857 !
r-0.003730336204992490 "

#425000000
r0.1094062081214726 !
r-0.005668141109741597 "

#426000000
r0.09267272194316106 !
r-0.004999777173896285 "

#427000000
r0.3297417239513325 !
r-0.003645562916986637 "

#428000000
r-0.1597179391399710 !
r-0.003090256243696621 "

#429000000
r-0.06170481457470013 !
r-0.003764341984666718 "

#430000000
r0.001085731140541853 !
r-0.003930608053341670 "

#431000000
r-0.2769655161453893 !
r-0.004769976267402842 "

#432000000
r0.2343010463884709 !
r-0.004873714105332001 "

#433000000
r0.4147957982920208 !
r-0.002810375945761415 "

#434000000
r0.2133346369498223 !
r-0.0008256231568402893 "

#435000000
r0.1827024556118096 !
r0.0004198388726266222 "

#436000000
r0.1404358510506573 !
r0.001429198879512543 "

#437000000
r0.6182457692219604 !
r0.003796251248440922 "

#438000000
r-0.06476777191093380 !
r0.005505830307637165 "

#439000000
r-0.1474936724975282 !
r0.004806593877183449 "

#440000000
r0.2896503450618737 !
r0.005221687460392108 "

#441000000
r-0.2557095322837771 !
r0.005295275654413098 "

#442000000
r0.1052232856253975 !
r0.004790822754779131 "

#443000000
r-0.3441545634185851 !
r0.004012541423521806 "

#444000000
r0.1211042735136817 !
r0.003288870210226071 "

#445000000
r-0.5464162626639453 !
r0.001936297840067368 "

#446000000
r-0.1008508139539292 !
r-0.0001029114060980378 "

#447000000
r-0.08162917883934621 !
r-0.0006737492594433131 "

#448000000
r-0.04636499270416651 !
r-0.001070375479001482 "

#449000000
r0.7030010102257889 !
r0.0009927512733610858 "

#450000000
r-0.03794971150064649 !
r0.003069310205196877 "

#451000000
r-0.1460796935175346 !
r0.002473750738807175 "

#452000000
r-0.4098640298708818 !
r0.0007171774251228352 "

#453000000
r0.2227737553852609 !
r0.0001267646709516276 "

#454000000
r-0.4877015210570744 !
r-0.0007037178993909699 "

#455000000
r0.1065514007312630 !
r-0.001892978554817261 "

#456000000
r0.005817279833260159 !
r-0.001529210808499189 "

#457000000
r0.2945718576448003 !
r-0.0005788877141481479 "

#458000000
r0.01553275657177940 !
r0.0003959095067112069 "

#459000000
r-0.3589852643563843 !
r-0.0006821790263819550 "

#460000000
r0.5553750643512254 !
r-6.286165913395112e-05 "

#461000000
r0.1594212171284194 !
r0.002176098159311548 "

#462000000
r-0.3917507792002473 !
r0.001434869125600328 "

#463000000
r0.1523166417125564 !
r0.0006760330036287563 "

#464000000
r-0.3366742919309295 !
r9.443586473297384e-05 "

#465000000
r-0.4065192204467135 !
r-0.002233654859270566 "

#466000000
r0.1052868234927185 !
r-0.003163050095923652 "

#467000000
r0.5269655335985123 !
r-0.001163179484603085 "

#468000000
r0.04861766331631871 !
r0.0006466910546116012 "

#469000000
r-0.4783445658544686 !
r-0.0007031584279668471 "

#470000000
r-0.4635201383782478 !
r-0.003648442705308222 "

#471000000
r0.5384306681503971 !
r-0.003390989307402940 "

#472000000
r-0.2820941046166521 !
r-0.002566966771510948 "

#473000000
r0.2535412361083285 !
r-0.002640309113789139 "

#474000000
r-0.2843032775154914 !
r-0.002720110661696484 "

#475000000
r-0.6987524534821500 !
r-0.005781761903874264 "

#476000000
r-0.5313341497335354 !
r-0.009597876381164737 "

#477000000
r0.3370325527492936 !
r-0.01014626480193892 "

#478000000
r0.05224240493168047 !
r-0.008863600202418472 "

#479000000
r0.3985129592267910 !
r-0.007396428076424054 "

#480000000
r0.05597897811568262 !
r-0.005926743566796290 "

#481000000
r0.2408571948309321 !
r-0.004960003501934879 "

#482000000
r0.3521355739262113 !
r-0.003071829029898695 "

#483000000
r0.05834599297984271 !
r-0.001767061332458700 "

#484000000
r0.1058682746270773 !
r-0.001241714647216128 "

#485000000
r0.02897566151454714 !
r-0.0008116391269204207 "

#486000000
r0.4692308241809244 !
r0.0007537047148346600 "

#487000000
r0.2415450082741501 !
r0.002974958906185189 "

#488000000
r0.1136107023423263 !
r0.004068585530082163 "

#489000000
r0.2417634089859110 !
r0.005156046192255987 "

#490000000
r0.4206599819511175 !
r0.007198298332789995 "

#491000000
r0.03615043611359714 !
r0.008583829569190508 "

#492000000
r0.1524384802439219 !
r0.009120678770033823 "

#493000000
r-0.1931971521536499 !
r0.008935905194260990 "

#494000000
r0.4621766042761840 !
r0.009722312545236270 "

#495000000
r-0.3355727146257845 !
r0.01005790899619691 "

#496000000
r0.2982209536772205 !
r0.009877934678371126 "

#497000000
r-0.4301371952300759 !
r0.009402934944656971 "

#498000000
r0.1156816946444037 !
r0.008359242328503004 "

#499000000
r-0.4855945531131025 !
r0.007148408089242514 "

