ams-lab1a_sinusoidal_source/sine_wave_with_noise.vcd
$date
    Thu Feb 11 15:30:49 2016
$end

$version
    2.0.beta1
$end

$timescale
      1 ps
$end

$scope module SystemC_AMS $end

$var real 1 !  i'm_sine_with_noise $end

$upscope $end

$enddefinitions $end


#0
r0.3517311651366813 !

#1000000
r0.1985674541745589 !

#2000000
r-0.2126141611528237 !

#3000000
r-0.5247297656258239 !

#4000000
r-0.1013779487487871 !

#5000000
r-0.6869702813039009 !

#6000000
r0.3116480874275060 !

#7000000
r-0.2825612560892866 !

#8000000
r-0.06302950815054707 !

#9000000
r-0.2956996061892417 !

#10000000
r0.07779475763989099 !

#11000000
r0.3362242285705708 !

#12000000
r0.7786614385418744 !

#13000000
r0.07956124673964672 !

#14000000
r-0.1492676909222422 !

#15000000
r0.1428798444545638 !

#16000000
r0.02826896904863369 !

#17000000
r-0.3134676977276875 !

#18000000
r0.1299937632401353 !

#19000000
r-0.2167485010579589 !

#20000000
r0.3741694959387398 !

#21000000
r0.1095708043201065 !

#22000000
r-0.4013658066556504 !

#23000000
r-0.05869709879512031 !

#24000000
r0.1994269747673229 !

#25000000
r0.1686370778333921 !

#26000000
r0.1292705734888423 !

#27000000
r0.2697846540369873 !

#28000000
r-0.1067749250367696 !

#29000000
r0.5977189796088498 !

#30000000
r0.3472733852795081 !

#31000000
r0.1431580823956821 !

#32000000
r0.5077138571664224 !

#33000000
r0.1292208863498740 !

#34000000
r-0.1276230040826051 !

#35000000
r0.3854082833484480 !

#36000000
r0.3498056408257911 !

#37000000
r0.1952610509775620 !

#38000000
r0.1116511865615034 !

#39000000
r0.3262411449122346 !

#40000000
r0.2195026630079536 !

#41000000
r0.8684935532278130 !

#42000000
r0.5136481829860233 !

#43000000
r0.5867691626286157 !

#44000000
r0.1812240465605419 !

#45000000
r0.01523129456556865 !

#46000000
r0.7332696136870953 !

#47000000
r0.2821055636826584 !

#48000000
r0.7834246224009070 !

#49000000
r0.7264056089390394 !

#50000000
r0.06754550351228997 !

#51000000
r0.4711866566725329 !

#52000000
r0.09834731990225928 !

#53000000
r0.2160253603641022 !

#54000000
r0.1134138739894935 !

#55000000
r0.1293743978363773 !

#56000000
r0.1320547135278811 !

#57000000
r0.6142422070416421 !

#58000000
r0.3803843397661680 !

#59000000
r0.5797323964851548 !

#60000000
r0.3805690617084235 !

#61000000
r0.3236908747622610 !

#62000000
r0.5183715000311249 !

#63000000
r0.4991739866470761 !

#64000000
r0.03734680692879772 !

#65000000
r-0.2525171419760852 !

#66000000
r1.108278803632663 !

#67000000
r0.5027539878010374 !

#68000000
r0.4753356130588280 !

#69000000
r0.4845435038485365 !

#70000000
r0.8538950638014151 !

#71000000
r0.4534983697740252 !

#72000000
r1.099505428277399 !

#73000000
r0.3324259729705478 !

#74000000
r0.6845028281693886 !

#75000000
r0.6488034827698740 !

#76000000
r0.8244463228186876 !

#77000000
r0.2368348207650008 !

#78000000
r0.2669184290985572 !

#79000000
r0.09902234038438312 !

#80000000
r0.4852200734492423 !

#81000000
r-0.06628865055816552 !

#82000000
r0.5996709012481903 !

#83000000
r0.2595500888489016 !

#84000000
r0.7140062180700066 !

#85000000
r0.3708462980350822 !

#86000000
r-0.01980261207884493 !

#87000000
r0.7169464643138235 !

#88000000
r1.167874829265896 !

#89000000
r0.4740492623489632 !

#90000000
r0.7183174503745270 !

#91000000
r0.5778388290310321 !

#92000000
r0.3122612831285452 !

#93000000
r0.9987768806562769 !

#94000000
r0.3924277876573641 !

#95000000
r0.9927152033461930 !

#96000000
r0.9446961425303273 !

#97000000
r0.7778316012180390 !

#98000000
r0.7454999175523260 !

#99000000
r0.8341136734761476 !

#100000000
r0.6093860893239821 !

#101000000
r0.4793796270765534 !

#102000000
r0.6862009573262968 !

#103000000
r0.3418110525671713 !

#104000000
r1.086980084096227 !

#105000000
r0.9212448151682414 !

#106000000
r0.9203814141541424 !

#107000000
r0.4438661273846876 !

#108000000
r0.9387240425853760 !

#109000000
r0.2159510590814144 !

#110000000
r0.9617257008292491 !

#111000000
r0.4083267630827475 !

#112000000
r0.4695303279217361 !

#113000000
r0.7780015959440879 !

#114000000
r1.106235078562650 !

#115000000
r0.5721981486163478 !

#116000000
r0.6448899524437254 !

#117000000
r0.4309757325448268 !

#118000000
r1.030585111500652 !

#119000000
r0.6409605661273251 !

#120000000
r0.6731769871482240 !

#121000000
r0.3868804955936718 !

#122000000
r0.8279636386602045 !

#123000000
r1.490039395799431 !

#124000000
r0.9435531400226291 !

#125000000
r0.5145548678396773 !

#126000000
r0.7102380227297034 !

#127000000
r0.4184008684391662 !

#128000000
r0.6572934487781983 !

#129000000
r0.9665600128422720 !

#130000000
r0.8558979810875870 !

#131000000
r0.7174223462941082 !

#132000000
r0.3936307026230045 !

#133000000
r0.9494410640224191 !

#134000000
r0.4967999996400275 !

#135000000
r0.4664771045958797 !

#136000000
r0.6697804222810807 !

#137000000
r0.7212349168144120 !

#138000000
r0.9396977769531198 !

#139000000
r0.9961781853847602 !

#140000000
r0.7562767799610032 !

#141000000
r1.053383942937145 !

#142000000
r0.8064730832948638 !

#143000000
r1.285892096554462 !

#144000000
r1.151159065859050 !

#145000000
r0.4277348515564894 !

#146000000
r1.221391084865224 !

#147000000
r1.019090036154488 !

#148000000
r0.6920944867617516 !

#149000000
r1.020076378168430 !

#150000000
r0.6131124033005327 !

#151000000
r0.3482293070318395 !

#152000000
r0.5580741129934952 !

#153000000
r0.4108034234848407 !

#154000000
r0.9039541465652143 !

#155000000
r0.7562757144985431 !

#156000000
r1.409860586941124 !

#157000000
r0.5292608185820680 !

#158000000
r1.626743699033451 !

#159000000
r1.215814334610791 !

#160000000
r0.7383769805733792 !

#161000000
r0.8189447945065428 !

#162000000
r1.602540193008705 !

#163000000
r1.389431769961692 !

#164000000
r0.6960934996061410 !

#165000000
r0.8282848599136391 !

#166000000
r1.132193855320534 !

#167000000
r0.7641330786946943 !

#168000000
r0.7036174947576388 !

#169000000
r0.9021135994942638 !

#170000000
r0.6473759809776225 !

#171000000
r1.007103694656785 !

#172000000
r0.6585484466760649 !

#173000000
r0.4923771399957946 !

#174000000
r0.6597182541728597 !

#175000000
r1.180148899137023 !

#176000000
r0.4862957266103651 !

#177000000
r0.3200903063378830 !

#178000000
r0.4728370127689048 !

#179000000
r0.9383571592177260 !

#180000000
r0.9157316308374536 !

#181000000
r0.4366548829489064 !

#182000000
r0.6300688481063750 !

#183000000
r0.5073515973534702 !

#184000000
r0.9472778819334824 !

#185000000
r1.103292449285496 !

#186000000
r1.276884620026352 !

#187000000
r0.9593574539299893 !

#188000000
r1.327379079503404 !

#189000000
r1.074069485549962 !

#190000000
r0.6561416347899423 !

#191000000
r1.257049695793716 !

#192000000
r0.8006784243621532 !

#193000000
r0.5614926424326000 !

#194000000
r1.494421466815504 !

#195000000
r0.6622557199418553 !

#196000000
r1.068724119961759 !

#197000000
r0.6152249615562061 !

#198000000
r1.057858940814874 !

#199000000
r1.291279538455361 !

#200000000
r0.9912285608455724 !

#201000000
r0.5645496135623724 !

#202000000
r1.256983026425306 !

#203000000
r0.7038305084025781 !

#204000000
r1.299712912301261 !

#205000000
r0.9935899299633693 !

#206000000
r0.9895084285316292 !

#207000000
r0.8634231229255679 !

#208000000
r1.358567322475808 !

#209000000
r1.113335165809821 !

#210000000
r1.283461498496247 !

#211000000
r1.186601125056731 !

#212000000
r1.171504808405419 !

#213000000
r0.5038218950039328 !

#214000000
r0.9392034805580539 !

#215000000
r1.075430617988476 !

#216000000
r1.238791162942798 !

#217000000
r0.5417782440003089 !

#218000000
r1.338978663670713 !

#219000000
r1.021635215233991 !

#220000000
r1.006825528799193 !

#221000000
r1.583557444137922 !

#222000000
r1.387447418320271 !

#223000000
r0.6664256112673956 !

#224000000
r0.9913093922216074 !

#225000000
r1.363650759471658 !

#226000000
r1.651892161748512 !

#227000000
r0.6471150506387618 !

#228000000
r0.5240727581325368 !

#229000000
r1.087673539955734 !

#230000000
r1.670128518397403 !

#231000000
r0.9901925020292539 !

#232000000
r1.532393407323446 !

#233000000
r0.7774543343843464 !

#234000000
r1.059576466415268 !

#235000000
r1.529667406033759 !

#236000000
r0.9324884083776760 !

#237000000
r1.102401606622649 !

#238000000
r0.3564659390659363 !

#239000000
r0.5201555555376599 !

#240000000
r1.200373438363145 !

#241000000
r0.5781056910392459 !

#242000000
r1.231099481000159 !

#243000000
r1.129721898742400 !

#244000000
r0.4677202447888209 !

#245000000
r1.633773282753470 !

#246000000
r1.148358920437193 !

#247000000
r0.8892783064523847 !

#248000000
r1.075432176632177 !

#249000000
r0.5872907345994343 !

#250000000
r0.8400786082838698 !

#251000000
r1.550038499924262 !

#252000000
r1.529721030103752 !

#253000000
r0.7866068307657978 !

#254000000
r1.120564031128595 !

#255000000
r1.163777873894379 !

#256000000
r0.5982088136532890 !

#257000000
r0.9799716347362316 !

#258000000
r1.029238129322595 !

#259000000
r0.7453484475909302 !

#260000000
r1.272000083736757 !

#261000000
r1.131396026997396 !

#262000000
r0.9378135779374591 !

#263000000
r1.301749614477684 !

#264000000
r1.058212543268586 !

#265000000
r0.7275849863254424 !

#266000000
r0.8355747116152558 !

#267000000
r1.132801180721299 !

#268000000
r0.8503196561885569 !

#269000000
r0.8218465633328588 !

#270000000
r1.047946005257544 !

#271000000
r0.2048045217441506 !

#272000000
r0.8207587614968093 !

#273000000
r0.9320695464422636 !

#274000000
r1.078184443637355 !

#275000000
r0.8326954874534181 !

#276000000
r1.214696961588849 !

#277000000
r0.8153107510638169 !

#278000000
r0.6391319437760437 !

#279000000
r1.366259994770920 !

#280000000
r1.235988622885948 !

#281000000
r0.9354196284589373 !

#282000000
r1.172787046207175 !

#283000000
r1.345410770576464 !

#284000000
r1.172494235197065 !

#285000000
r1.301878764142739 !

#286000000
r1.135959681091949 !

#287000000
r1.011581058753312 !

#288000000
r0.8471793934824284 !

#289000000
r1.010344265309692 !

#290000000
r0.9011001291644886 !

#291000000
r1.065895363900312 !

#292000000
r1.768666593219784 !

#293000000
r1.220889600894537 !

#294000000
r1.196369215533804 !

#295000000
r0.5296634447258407 !

#296000000
r0.9672552548805743 !

#297000000
r1.134102532007723 !

#298000000
r0.4970388985749377 !

#299000000
r0.6888701744802634 !

#300000000
r1.383434156201987 !

#301000000
r0.8192076090271549 !

#302000000
r1.338535707580412 !

#303000000
r0.7063940000393847 !

#304000000
r0.5872143651819466 !

#305000000
r1.279732553640187 !

#306000000
r0.5498102387505464 !

#307000000
r0.9656974228377975 !

#308000000
r0.6629535072079806 !

#309000000
r0.6809698844249374 !

#310000000
r1.208234458831053 !

#311000000
r0.9676583704670267 !

#312000000
r0.4863106454152170 !

#313000000
r0.8598515722467056 !

#314000000
r0.5949470494727243 !

#315000000
r1.339808652688824 !

#316000000
r0.8953505534905273 !

#317000000
r0.4752097963973442 !

#318000000
r0.8248996481739010 !

#319000000
r1.388541760020013 !

#320000000
r0.9439762274000497 !

#321000000
r0.8543046406481110 !

#322000000
r1.065910307379595 !

#323000000
r0.9462606055422443 !

#324000000
r0.8454668361735926 !

#325000000
r0.6386409736425216 !

#326000000
r1.188037464860498 !

#327000000
r0.9540469149077708 !

#328000000
r0.5469326690926688 !

#329000000
r0.4041719456735173 !

#330000000
r1.239336937689118 !

#331000000
r0.9586662768743276 !

#332000000
r0.6457385875008090 !

#333000000
r0.5886031116105612 !

#334000000
r0.9876136667393984 !

#335000000
r1.506797860189746 !

#336000000
r0.8093992947229357 !

#337000000
r0.9551783556123905 !

#338000000
r0.6732181837616555 !

#339000000
r0.7013593895870439 !

#340000000
r0.7907727675330645 !

#341000000
r0.2731905992564392 !

#342000000
r0.5011596033838586 !

#343000000
r1.163524754750473 !

#344000000
r0.8654079105719068 !

#345000000
r0.2971635325973533 !

#346000000
r1.128465287285474 !

#347000000
r1.130626592102154 !

#348000000
r1.210295934085361 !

#349000000
r1.206358651128122 !

#350000000
r0.7343957532965689 !

#351000000
r1.191063795641652 !

#352000000
r0.8097408661662098 !

#353000000
r0.8868321166086841 !

#354000000
r1.234911670664918 !

#355000000
r0.8855703205426448 !

#356000000
r0.8124651860975423 !

#357000000
r1.238493125407436 !

#358000000
r0.5723969092773121 !

#359000000
r0.9969444668142713 !

#360000000
r0.4461920462720829 !

#361000000
r0.6666458068884630 !

#362000000
r0.7136378543904277 !

#363000000
r0.4720825934790717 !

#364000000
r0.8028751398868847 !

#365000000
r0.2659544737711249 !

#366000000
r0.5055581304274305 !

#367000000
r1.006563551148538 !

#368000000
r0.8877030156095617 !

#369000000
r1.197206158455580 !

#370000000
r0.8676074763386152 !

#371000000
r1.149625298241359 !

#372000000
r0.9491987027723497 !

#373000000
r0.6509557204376463 !

#374000000
r0.3658119587923515 !

#375000000
r0.3986163910359190 !

#376000000
r0.7905631637247683 !

#377000000
r0.5768397977429844 !

#378000000
r0.7674738493947538 !

#379000000
r0.9272052188032777 !

#380000000
r0.2841533448607207 !

#381000000
r0.4589733863554734 !

#382000000
r0.7247600074471330 !

#383000000
r0.9531994926955643 !

#384000000
r0.9070103905675031 !

#385000000
r-0.1223548491639821 !

#386000000
r0.4248096728424127 !

#387000000
r0.1698163056066298 !

#388000000
r0.5260526974714299 !

#389000000
r1.166797766306711 !

#390000000
r0.6172001314430842 !

#391000000
r0.4484470224455909 !

#392000000
r0.4351877124024541 !

#393000000
r0.9614866011394624 !

#394000000
r0.7553344734134786 !

#395000000
r0.5707886522719533 !

#396000000
r0.7962487425095612 !

#397000000
r0.4785220372386953 !

#398000000
r0.6797523624925480 !

#399000000
r0.9653468540990107 !

#400000000
r-0.07942486212663757 !

#401000000
r0.3786231801888455 !

#402000000
r1.140028471330481 !

#403000000
r0.5772130180819499 !

#404000000
r0.3737149818659616 !

#405000000
r1.141631123867095 !

#406000000
r0.1721715809484336 !

#407000000
r0.1776560870208604 !

#408000000
r0.7131587164767804 !

#409000000
r0.4949977477930854 !

#410000000
r0.5925380289915233 !

#411000000
r0.1840430058193126 !

#412000000
r0.4633138819469242 !

#413000000
r0.7316934191737011 !

#414000000
r0.4132353012949027 !

#415000000
r0.4556682117831034 !

#416000000
r0.5315531481688516 !

#417000000
r0.3540969207850745 !

#418000000
r-0.01601392859965306 !

#419000000
r-0.2721587938926045 !

#420000000
r0.3198303719348633 !

#421000000
r0.2818979140904218 !

#422000000
r0.8785299846473973 !

#423000000
r0.2169577138865176 !

#424000000
r-0.2760472834917507 !

#425000000
r0.5633967078608607 !

#426000000
r0.5410559380328287 !

#427000000
r0.7724999549901184 !

#428000000
r0.2773978275106403 !

#429000000
r0.3697512311061866 !

#430000000
r0.4268650227053360 !

#431000000
r0.1431202122663878 !

#432000000
r0.6486766273815199 !

#433000000
r0.8234448730283837 !

#434000000
r0.6162410726632930 !

#435000000
r0.5798503462466471 !

#436000000
r0.5318095178877106 !

#437000000
r1.003829761499457 !

#438000000
r0.3150113236107617 !

#439000000
r0.2264655332399604 !

#440000000
r0.6577748977464890 !

#441000000
r0.1065658344205001 !

#442000000
r0.4616351643386287 !

#443000000
r0.006379756772448453 !

#444000000
r0.4657471966882223 !

#445000000
r-0.2076783424188363 !

#446000000
r0.2319687305691240 !

#447000000
r0.2452588508154573 !

#448000000
r0.2745786171031525 !

#449000000
r1.017987529880998 !

#450000000
r0.2710672828744539 !

#451000000
r0.1569555761151865 !

#452000000
r-0.1128224482936509 !

#453000000
r0.5138099222135228 !

#454000000
r-0.2026822585873140 !

#455000000
r0.3855425067705254 !

#456000000
r0.2787692153504130 !

#457000000
r0.5614738469652525 !

#458000000
r0.2763742628615470 !

#459000000
r-0.1042145386728826 !

#460000000
r0.8040649515159940 !

#461000000
r0.4020204479239895 !

#462000000
r-0.1552517821765659 !

#463000000
r0.3827060683893531 !

#464000000
r-0.1124035309815485 !

#465000000
r-0.1883759790499218 !

#466000000
r0.3172939334148164 !

#467000000
r0.7328281423686857 !

#468000000
r0.2483276438308120 !

#469000000
r-0.2847950978032732 !

#470000000
r-0.2761388237923939 !

#471000000
r0.7196364317774583 !

#472000000
r-0.1070710456412033 !

#473000000
r0.4223746808210288 !

#474000000
r-0.1216661123203921 !

#475000000
r-0.5423179884419093 !

#476000000
r-0.3811085606125196 !

#477000000
r0.4810433353015987 !

#478000000
r0.1900326956166208 !

#479000000
r0.5300773183191694 !

#480000000
r0.1813122116803321 !

#481000000
r0.3599543549259412 !

#482000000
r0.4649919587996261 !

#483000000
r0.1649571472552850 !

#484000000
r0.2062299894782688 !

#485000000
r0.1230839748332869 !

#486000000
r0.5570820207316871 !

#487000000
r0.3231356198425765 !

#488000000
r0.1889375078703216 !

#489000000
r0.3108234347001735 !

#490000000
r0.4834505014805369 !

#491000000
r0.09266897059597656 !

#492000000
r0.2026827984238405 !

#493000000
r-0.1492290338358419 !

#494000000
r0.4998667869458558 !

#495000000
r-0.3041619555472149 !

#496000000
r0.3233510491207935 !

#497000000
r-0.4112887555146386 !

#498000000
r0.1282477345275796 !

#499000000
r-0.4793114091470156 !

#500000000
r0.3295455370143685 !

#501000000
r0.1470173935279996 !

#502000000
r0.6761953231345670 !

#503000000
r0.4965061946773411 !

#504000000
r-0.5441487615951616 !

#505000000
r-0.5951053597659043 !

#506000000
r-0.2995425300990890 !

#507000000
r0.07823199852790268 !

#508000000
r-0.2447653012375249 !

#509000000
r-0.01659882025721553 !

#510000000
r-0.3029757893396085 !

#511000000
r-0.4238261908464910 !

#512000000
r0.3392206500862611 !

#513000000
r0.6047560871948963 !

#514000000
r0.1281956592208065 !

#515000000
r0.3054103268181043 !

#516000000
r0.07098475881841637 !

#517000000
r0.2730548746812733 !

#518000000
r0.02685636704445714 !

#519000000
r-0.1703022185831261 !

#520000000
r-0.7999337599765307 !

#521000000
r-0.07370976998281953 !

#522000000
r-0.3040962086443696 !

#523000000
r-0.3748165224104193 !

#524000000
r-0.2997155698092777 !

#525000000
r0.5010701377855330 !

#526000000
r-0.7950655248067118 !

#527000000
r0.2291563520629688 !

#528000000
r0.3827063083820235 !

#529000000
r0.3385255307443823 !

#530000000
r-0.8381178180742663 !

#531000000
r0.03280117623833470 !

#532000000
r0.06987692658667841 !

#533000000
r-0.4495681338064415 !

#534000000
r-0.1338163234564382 !

#535000000
r-0.03476475340067739 !

#536000000
r0.2711086286075421 !

#537000000
r-1.000106212598613 !

#538000000
r0.008163071197261146 !

#539000000
r-0.006008055126703493 !

#540000000
r-0.05436911704455014 !

#541000000
r-0.1678927185426435 !

#542000000
r-0.4123287982356103 !

#543000000
r0.2272312833516086 !

#544000000
r-0.5093147649935446 !

#545000000
r-0.9033142979920377 !

#546000000
r-0.08170690445973930 !

#547000000
r-0.4603639014514682 !

#548000000
r-0.8806653482056866 !

#549000000
r-0.4040889725744383 !

#550000000
r-0.2813597994672955 !

#551000000
r-0.1369841750831084 !

#552000000
r0.1720886149967754 !

#553000000
r-0.02273981249757334 !

#554000000
r-1.187336565092462 !

#555000000
r-0.3710435792737684 !

#556000000
r-0.5020120338131040 !

#557000000
r0.1723206862559598 !

#558000000
r-0.2405352239593179 !

#559000000
r-0.3176405205958976 !

#560000000
r0.3448672070458717 !

#561000000
r-1.023329180651458 !

#562000000
r-0.5273941086304155 !

#563000000
r-0.2788555826324473 !

#564000000
r0.2698014863441372 !

#565000000
r0.3065741821986834 !

#566000000
r-0.3986044774432786 !

#567000000
r-0.6275847137434397 !

#568000000
r-0.2669914683601361 !

#569000000
r-0.1808164831531524 !

#570000000
r-0.3552528997021676 !

#571000000
r0.6470445675619740 !

#572000000
r-0.5796687777538105 !

#573000000
r-0.1348742162505132 !

#574000000
r-0.08502774281313763 !

#575000000
r-0.4783565330499128 !

#576000000
r-0.1011513186298231 !

#577000000
r-1.161862772045408 !

#578000000
r-0.7465447328823247 !

#579000000
r-0.9368045483755293 !

#580000000
r-0.5075385964609609 !

#581000000
r0.09594172836187365 !

#582000000
r-0.2829456723690332 !

#583000000
r-0.4533964037702066 !

#584000000
r-0.2327481891931366 !

#585000000
r-0.5562814418089365 !

#586000000
r-0.8129719839856731 !

#587000000
r-0.2603306251014557 !

#588000000
r-0.5032709340009032 !

#589000000
r-0.2137498837966423 !

#590000000
r-0.7477287097430503 !

#591000000
r-0.7301861685948723 !

#592000000
r-0.2068249611671882 !

#593000000
r-0.3967148360720522 !

#594000000
r-0.6089198106655361 !

#595000000
r-0.2131088515346084 !

#596000000
r-1.046963765927951 !

#597000000
r-0.03255440305875368 !

#598000000
r-0.5769792177975757 !

#599000000
r-0.3710192281591924 !

#600000000
r-1.125907819826728 !

#601000000
r-0.2625929036503276 !

#602000000
r-1.037955930747719 !

#603000000
r-0.9139857876257198 !

#604000000
r-0.4167706837449903 !

#605000000
r-0.4436148138562517 !

#606000000
r-0.8234296663528924 !

#607000000
r-0.1814543714876651 !

#608000000
r-0.5431199711685354 !

#609000000
r-0.8088096197691595 !

#610000000
r-0.4893773359945947 !

#611000000
r-0.5993289322655307 !

#612000000
r-0.08466677403001943 !

#613000000
r-0.6698294949710024 !

#614000000
r-0.7015499046990464 !

#615000000
r-0.5276976397357432 !

#616000000
r-1.000415034143195 !

#617000000
r-1.038586728083893 !

#618000000
r-0.8593621135025796 !

#619000000
r-0.3923172848345558 !

#620000000
r-1.319001720214166 !

#621000000
r-0.7098107787202843 !

#622000000
r-0.6419823710162402 !

#623000000
r-1.020110590732073 !

#624000000
r-0.2155947631353844 !

#625000000
r-0.5152999508488818 !

#626000000
r-0.8393731339687140 !

#627000000
r-0.4843271820050284 !

#628000000
r-0.7968444257558198 !

#629000000
r-0.3013637943479072 !

#630000000
r-0.7425297478282518 !

#631000000
r-0.8091904457505967 !

#632000000
r-0.6292868582895914 !

#633000000
r-0.7936151113041987 !

#634000000
r-0.8782886798949507 !

#635000000
r-1.238729997578598 !

#636000000
r-0.6958277482066284 !

#637000000
r-0.06327709762503886 !

#638000000
r-0.7319579926057880 !

#639000000
r-0.6113318798366558 !

#640000000
r-0.9166389353938698 !

#641000000
r-0.8547708444860793 !

#642000000
r-0.4548126869071696 !

#643000000
r-0.9403080195947234 !

#644000000
r-0.8503819133061179 !

#645000000
r-0.6735192758066028 !

#646000000
r-0.8885141288486671 !

#647000000
r-0.6367191541777992 !

#648000000
r-1.010817077040225 !

#649000000
r-0.8685743731668960 !

#650000000
r-0.8848422437794344 !

#651000000
r-0.7074347534046570 !

#652000000
r-0.6855050437241962 !

#653000000
r-0.9138904139759790 !

#654000000
r-0.6747571453334763 !

#655000000
r-0.09560206598315524 !

#656000000
r-1.032221845239504 !

#657000000
r-0.8829879203109277 !

#658000000
r-0.9937000783601054 !

#659000000
r-1.215508471819044 !

#660000000
r-1.471123027409613 !

#661000000
r-1.338193274341271 !

#662000000
r-0.7372113434787702 !

#663000000
r-0.3054511827575931 !

#664000000
r-1.335379246102252 !

#665000000
r-0.8964786553446076 !

#666000000
r-0.8000617144485196 !

#667000000
r-1.005141913184907 !

#668000000
r-1.054498166685747 !

#669000000
r-1.150959197089386 !

#670000000
r-0.9906731991401387 !

#671000000
r-0.5598037304309511 !

#672000000
r-1.129897953780436 !

#673000000
r-0.7537738573113233 !

#674000000
r-0.9152945304301576 !

#675000000
r-0.8010175805946290 !

#676000000
r-0.7235083373910346 !

#677000000
r-0.6025018128415622 !

#678000000
r-0.4936278208749648 !

#679000000
r-0.6028866501826919 !

#680000000
r-0.7595615491027029 !

#681000000
r-1.112597567868841 !

#682000000
r-0.8329989016476970 !

#683000000
r-1.330262939968398 !

#684000000
r-0.9879579593007942 !

#685000000
r-1.119015062419367 !

#686000000
r-1.046185075025389 !

#687000000
r-0.8857817942984393 !

#688000000
r-1.203753860949709 !

#689000000
r-1.235077227344880 !

#690000000
r-0.9381981194049296 !

#691000000
r-0.6514914968790952 !

#692000000
r-1.051333501153723 !

#693000000
r-1.162488638745573 !

#694000000
r-1.186311263822409 !

#695000000
r-0.8122775753867727 !

#696000000
r-1.224313429574138 !

#697000000
r-1.050303413676495 !

#698000000
r-1.693499371472249 !

#699000000
r-0.1780311496483650 !

#700000000
r-0.8886672692468516 !

#701000000
r-0.8811585722169635 !

#702000000
r-0.3617068910581868 !

#703000000
r-0.6200906212995986 !

#704000000
r-1.201780208627881 !

#705000000
r-1.027607838468279 !

#706000000
r-0.9284617870745602 !

#707000000
r-1.194531411225165 !

#708000000
r-1.287050630729168 !

#709000000
r-1.605106785164462 !

#710000000
r-1.622489605434846 !

#711000000
r-1.150617510936237 !

#712000000
r-1.108959500002946 !

#713000000
r-1.008873304915071 !

#714000000
r-0.6384027765215361 !

#715000000
r-1.763689952034272 !

#716000000
r-1.530356144908074 !

#717000000
r-0.8251410419889033 !

#718000000
r-1.271258404587886 !

#719000000
r-0.4504868675438949 !

#720000000
r-0.9429254172100600 !

#721000000
r-1.001789210268757 !

#722000000
r-0.9525260041449867 !

#723000000
r-1.205409113600043 !

#724000000
r-0.9058435089175251 !

#725000000
r-1.040487211094002 !

#726000000
r-0.4961554693937394 !

#727000000
r-0.8428728822695259 !

#728000000
r-1.297516523842253 !

#729000000
r-0.8951579372336369 !

#730000000
r-0.7190412119964746 !

#731000000
r-0.8898373154777282 !

#732000000
r-0.5572206896343668 !

#733000000
r-0.7883455764805111 !

#734000000
r-1.173801053052434 !

#735000000
r-1.144658565249409 !

#736000000
r-0.9182636863623327 !

#737000000
r-1.018070778432560 !

#738000000
r-1.507245258300964 !

#739000000
r-1.120095869416194 !

#740000000
r-1.158182616786539 !

#741000000
r-0.9566642271144563 !

#742000000
r-0.8300507809589031 !

#743000000
r-0.6371965545884219 !

#744000000
r-0.5024037916833834 !

#745000000
r-0.8057977798474054 !

#746000000
r-1.529893120639789 !

#747000000
r-0.5123707241916897 !

#748000000
r-0.9674644465401319 !

#749000000
r-0.7797449522300466 !

#750000000
r-0.9542595389305860 !

#751000000
r-1.224773187699361 !

#752000000
r-0.7125098084067687 !

#753000000
r-0.9080184564771668 !

#754000000
r-0.5223343834101334 !

#755000000
r-1.326295322337165 !

#756000000
r-1.141502160709087 !

#757000000
r-0.8210545737981758 !

#758000000
r-0.9528290082952879 !

#759000000
r-0.9999996974648491 !

#760000000
r-0.7390697087450162 !

#761000000
r-1.100605999488670 !

#762000000
r-0.7657616370883582 !

#763000000
r-0.9068166838778329 !

#764000000
r-0.8059803944711692 !

#765000000
r-1.488405766762754 !

#766000000
r-0.9012820777695684 !

#767000000
r-0.9345400361389841 !

#768000000
r-1.373459149549991 !

#769000000
r-1.248403753744386 !

#770000000
r-0.9640235797437220 !

#771000000
r-0.9887489674972928 !

#772000000
r-1.020172605841271 !

#773000000
r-1.157482552039722 !

#774000000
r-0.8617227224178559 !

#775000000
r-0.6522474588940043 !

#776000000
r-1.468823201940911 !

#777000000
r-1.048433361148990 !

#778000000
r-0.8735372380944479 !

#779000000
r-0.8418413208011504 !

#780000000
r-0.6074170874306752 !

#781000000
r-0.5504471720739638 !

#782000000
r-0.8436897912135930 !

#783000000
r-0.9013482541050236 !

#784000000
r-0.8711091255291132 !

#785000000
r-1.103749723479305 !

#786000000
r-0.5471956400499519 !

#787000000
r-0.9053478560829250 !

#788000000
r-0.7357143745147637 !

#789000000
r-0.8128723014971384 !

#790000000
r-1.155152834969459 !

#791000000
r-0.5898808285897874 !

#792000000
r-1.118788397010270 !

#793000000
r-0.5649274101001616 !

#794000000
r-1.578568345105202 !

#795000000
r-1.069732642482268 !

#796000000
r-0.9437711551426048 !

#797000000
r-1.378187178269535 !

#798000000
r-0.7491482117873167 !

#799000000
r-1.140984207373184 !

#800000000
r-0.6094130105844970 !

#801000000
r-1.063284654207591 !

#802000000
r-1.013819765229061 !

#803000000
r-0.6858011314225840 !

#804000000
r-0.3669197448974835 !

#805000000
r-1.117062334636708 !

#806000000
r-1.049158822085583 !

#807000000
r-1.160161352962969 !

#808000000
r-1.198748545269657 !

#809000000
r-0.9223678888660066 !

#810000000
r-0.9422808864534122 !

#811000000
r-1.024701281184397 !

#812000000
r-1.343614871443088 !

#813000000
r-0.8863651331116732 !

#814000000
r-0.6307529842773103 !

#815000000
r-1.061318448415538 !

#816000000
r-0.1948704109291067 !

#817000000
r-1.243750282948962 !

#818000000
r-0.9782282014112329 !

#819000000
r-0.2292236245051624 !

#820000000
r-1.170459616241194 !

#821000000
r-0.7963940285924331 !

#822000000
r-1.517041013428288 !

#823000000
r-0.7523436963045760 !

#824000000
r-0.7757897152980703 !

#825000000
r-1.008086457308975 !

#826000000
r-0.5914275364817141 !

#827000000
r-0.3134456379677023 !

#828000000
r-0.7704382297271288 !

#829000000
r-1.226807540397844 !

#830000000
r-0.8148598263712129 !

#831000000
r-0.7739827592687180 !

#832000000
r-0.6668891485693044 !

#833000000
r-0.9620720209377585 !

#834000000
r-0.2413952304623056 !

#835000000
r-1.632198801564778 !

#836000000
r-1.046498710415464 !

#837000000
r-0.6612858100294027 !

#838000000
r-1.008840209012249 !

#839000000
r-0.7344805475281617 !

#840000000
r-0.3752871916541379 !

#841000000
r-0.9410876245680300 !

#842000000
r-1.083095731853837 !

#843000000
r-0.6189554310145368 !

#844000000
r-1.330151667461151 !

#845000000
r-0.8142753159155898 !

#846000000
r-0.7769789813526914 !

#847000000
r-0.4842398661222481 !

#848000000
r-0.7121019363006997 !

#849000000
r-0.8137650836036258 !

#850000000
r-1.012281133295454 !

#851000000
r-1.124923548474229 !

#852000000
r-0.6300577607017839 !

#853000000
r-1.060555440275804 !

#854000000
r-0.4894945482262002 !

#855000000
r-0.8825571165113527 !

#856000000
r-0.5121317845932463 !

#857000000
r-0.9682607808830190 !

#858000000
r-0.4074042351163841 !

#859000000
r-0.5443983971497298 !

#860000000
r-1.264289781222081 !

#861000000
r-0.7158073301715421 !

#862000000
r-0.8088178643328964 !

#863000000
r-0.5448348640948943 !

