ams-lab1a_sinusoidal_source/testbench.vcd
$date
    Mon Feb  8 14:38:11 2016
$end

$version
    2.0.beta1
$end

$timescale
      1 ps
$end

$scope module SystemC_AMS $end

$var real 1 !  sig1 $end

$upscope $end

$enddefinitions $end


#0
r0.000000000000000 !

#5000000
r0.03141075907812829 !

#10000000
r0.06279051952931337 !

#15000000
r0.09410831331851431 !

#20000000
r0.1253332335643043 !

#25000000
r0.1564344650402309 !

#30000000
r0.1873813145857246 !

#35000000
r0.2181432413965425 !

#40000000
r0.2486898871648548 !

#45000000
r0.2789911060392293 !

#50000000
r0.3090169943749474 !

#55000000
r0.3387379202452914 !

#60000000
r0.3681245526846779 !

#65000000
r0.3971478906347806 !

#70000000
r0.4257792915650727 !

#75000000
r0.4539904997395467 !

#80000000
r0.4817536741017153 !

#85000000
r0.5090414157503713 !

#90000000
r0.5358267949789967 !

#95000000
r0.5620833778521306 !

#100000000
r0.5877852522924731 !

#105000000
r0.6129070536529764 !

#110000000
r0.6374239897486896 !

#115000000
r0.6613118653236518 !

#120000000
r0.6845471059286886 !

#125000000
r0.7071067811865475 !

#130000000
r0.7289686274214116 !

#135000000
r0.7501110696304595 !

#140000000
r0.7705132427757893 !

#145000000
r0.7901550123756903 !

#150000000
r0.8090169943749475 !

#155000000
r0.8270805742745617 !

#160000000
r0.8443279255020151 !

#165000000
r0.8607420270039436 !

#170000000
r0.8763066800438636 !

#175000000
r0.8910065241883678 !

#180000000
r0.9048270524660196 !

#185000000
r0.9177546256839811 !

#190000000
r0.9297764858882513 !

#195000000
r0.9408807689542256 !

#200000000
r0.9510565162951535 !

#205000000
r0.9602936856769431 !

#210000000
r0.9685831611286311 !

#215000000
r0.9759167619387474 !

#220000000
r0.9822872507286886 !

#225000000
r0.9876883405951378 !

#230000000
r0.9921147013144779 !

#235000000
r0.9955619646030800 !

#240000000
r0.9980267284282716 !

#245000000
r0.9995065603657316 !

#250000000
r1.000000000000000 !

#255000000
r0.9995065603657316 !

#260000000
r0.9980267284282716 !

#265000000
r0.9955619646030800 !

#270000000
r0.9921147013144779 !

#275000000
r0.9876883405951378 !

#280000000
r0.9822872507286887 !

#285000000
r0.9759167619387474 !

#290000000
r0.9685831611286312 !

#295000000
r0.9602936856769431 !

#300000000
r0.9510565162951536 !

#305000000
r0.9408807689542255 !

#310000000
r0.9297764858882515 !

#315000000
r0.9177546256839813 !

#320000000
r0.9048270524660195 !

#325000000
r0.8910065241883679 !

#330000000
r0.8763066800438635 !

#335000000
r0.8607420270039436 !

#340000000
r0.8443279255020152 !

#345000000
r0.8270805742745617 !

#350000000
r0.8090169943749475 !

#355000000
r0.7901550123756905 !

#360000000
r0.7705132427757893 !

#365000000
r0.7501110696304597 !

#370000000
r0.7289686274214114 !

#375000000
r0.7071067811865476 !

#380000000
r0.6845471059286888 !

#385000000
r0.6613118653236518 !

#390000000
r0.6374239897486895 !

#395000000
r0.6129070536529768 !

#400000000
r0.5877852522924732 !

#405000000
r0.5620833778521308 !

#410000000
r0.5358267949789967 !

#415000000
r0.5090414157503711 !

#420000000
r0.4817536741017156 !

#425000000
r0.4539904997395469 !

#430000000
r0.4257792915650725 !

#435000000
r0.3971478906347806 !

#440000000
r0.3681245526846781 !

#445000000
r0.3387379202452913 !

#450000000
r0.3090169943749475 !

#455000000
r0.2789911060392291 !

#460000000
r0.2486898871648548 !

#465000000
r0.2181432413965428 !

#470000000
r0.1873813145857246 !

#475000000
r0.1564344650402310 !

#480000000
r0.1253332335643045 !

#485000000
r0.09410831331851435 !

#490000000
r0.06279051952931358 !

#495000000
r0.03141075907812868 !

#500000000
r1.224646799147353e-16 !

#505000000
r-0.03141075907812799 !

#510000000
r-0.06279051952931335 !

#515000000
r-0.09410831331851410 !

#520000000
r-0.1253332335643043 !

#525000000
r-0.1564344650402312 !

#530000000
r-0.1873813145857248 !

#535000000
r-0.2181432413965421 !

#540000000
r-0.2486898871648546 !

#545000000
r-0.2789911060392289 !

#550000000
r-0.3090169943749473 !

#555000000
r-0.3387379202452915 !

#560000000
r-0.3681245526846779 !

#565000000
r-0.3971478906347808 !

#570000000
r-0.4257792915650727 !

#575000000
r-0.4539904997395471 !

#580000000
r-0.4817536741017150 !

#585000000
r-0.5090414157503712 !

#590000000
r-0.5358267949789964 !

#595000000
r-0.5620833778521306 !

#600000000
r-0.5877852522924730 !

#605000000
r-0.6129070536529766 !

#610000000
r-0.6374239897486896 !

#615000000
r-0.6613118653236520 !

#620000000
r-0.6845471059286884 !

#625000000
r-0.7071067811865475 !

#630000000
r-0.7289686274214113 !

#635000000
r-0.7501110696304595 !

#640000000
r-0.7705132427757894 !

#645000000
r-0.7901550123756904 !

#650000000
r-0.8090169943749473 !

#655000000
r-0.8270805742745622 !

#660000000
r-0.8443279255020153 !

#665000000
r-0.8607420270039433 !

#670000000
r-0.8763066800438636 !

#675000000
r-0.8910065241883678 !

#680000000
r-0.9048270524660194 !

#685000000
r-0.9177546256839813 !

#690000000
r-0.9297764858882515 !

#695000000
r-0.9408807689542255 !

#700000000
r-0.9510565162951535 !

#705000000
r-0.9602936856769430 !

#710000000
r-0.9685831611286310 !

#715000000
r-0.9759167619387474 !

#720000000
r-0.9822872507286887 !

#725000000
r-0.9876883405951377 !

#730000000
r-0.9921147013144778 !

#735000000
r-0.9955619646030800 !

#740000000
r-0.9980267284282716 !

#745000000
r-0.9995065603657316 !

#750000000
r-1.000000000000000 !

#755000000
r-0.9995065603657316 !

#760000000
r-0.9980267284282716 !

#765000000
r-0.9955619646030800 !

#770000000
r-0.9921147013144779 !

#775000000
r-0.9876883405951378 !

#780000000
r-0.9822872507286886 !

#785000000
r-0.9759167619387473 !

#790000000
r-0.9685831611286313 !

#795000000
r-0.9602936856769431 !

#800000000
r-0.9510565162951536 !

#805000000
r-0.9408807689542256 !

#810000000
r-0.9297764858882516 !

#815000000
r-0.9177546256839810 !

#820000000
r-0.9048270524660196 !

#825000000
r-0.8910065241883679 !

#830000000
r-0.8763066800438634 !

#835000000
r-0.8607420270039440 !

#840000000
r-0.8443279255020155 !

#845000000
r-0.8270805742745618 !

#850000000
r-0.8090169943749476 !

#855000000
r-0.7901550123756906 !

#860000000
r-0.7705132427757890 !

#865000000
r-0.7501110696304595 !

#870000000
r-0.7289686274214116 !

#875000000
r-0.7071067811865477 !

#880000000
r-0.6845471059286889 !

#885000000
r-0.6613118653236523 !

#890000000
r-0.6374239897486896 !

#895000000
r-0.6129070536529765 !

#900000000
r-0.5877852522924734 !

#905000000
r-0.5620833778521309 !

#910000000
r-0.5358267949789963 !

#915000000
r-0.5090414157503712 !

#920000000
r-0.4817536741017153 !

#925000000
r-0.4539904997395470 !

#930000000
r-0.4257792915650730 !

#935000000
r-0.3971478906347812 !

#940000000
r-0.3681245526846779 !

#945000000
r-0.3387379202452914 !

#950000000
r-0.3090169943749476 !

#955000000
r-0.2789911060392288 !

#960000000
r-0.2486898871648553 !

#965000000
r-0.2181432413965433 !

#970000000
r-0.1873813145857247 !

#975000000
r-0.1564344650402311 !

#980000000
r-0.1253332335643046 !

#985000000
r-0.09410831331851491 !

#990000000
r-0.06279051952931415 !

#995000000
r-0.03141075907812925 !

#1000000000
r-2.449293598294706e-16 !

#1005000000
r0.03141075907812787 !

#1010000000
r0.06279051952931278 !

#1015000000
r0.09410831331851442 !

#1020000000
r0.1253332335643042 !

#1025000000
r0.1564344650402306 !

#1030000000
r0.1873813145857242 !

#1035000000
r0.2181432413965428 !

#1040000000
r0.2486898871648549 !

#1045000000
r0.2789911060392292 !

#1050000000
r0.3090169943749480 !

#1055000000
r0.3387379202452918 !

#1060000000
r0.3681245526846782 !

#1065000000
r0.3971478906347799 !

#1070000000
r0.4257792915650718 !

#1075000000
r0.4539904997395466 !

#1080000000
r0.4817536741017149 !

#1085000000
r0.5090414157503708 !

#1090000000
r0.5358267949789960 !

#1095000000
r0.5620833778521305 !

#1100000000
r0.5877852522924729 !

#1105000000
r0.6129070536529762 !

#1110000000
r0.6374239897486899 !

#1115000000
r0.6613118653236519 !

#1120000000
r0.6845471059286886 !

#1125000000
r0.7071067811865474 !

#1130000000
r0.7289686274214118 !

#1135000000
r0.7501110696304597 !

#1140000000
r0.7705132427757893 !

#1145000000
r0.7901550123756909 !

#1150000000
r0.8090169943749478 !

#1155000000
r0.8270805742745616 !

#1160000000
r0.8443279255020147 !

#1165000000
r0.8607420270039432 !

#1170000000
r0.8763066800438636 !

#1175000000
r0.8910065241883677 !

#1180000000
r0.9048270524660194 !

#1185000000
r0.9177546256839809 !

#1190000000
r0.9297764858882515 !

#1195000000
r0.9408807689542255 !

#1200000000
r0.9510565162951535 !

#1205000000
r0.9602936856769432 !

#1210000000
r0.9685831611286312 !

#1215000000
r0.9759167619387474 !

#1220000000
r0.9822872507286886 !

#1225000000
r0.9876883405951378 !

#1230000000
r0.9921147013144779 !

#1235000000
r0.9955619646030800 !

#1240000000
r0.9980267284282716 !

#1245000000
r0.9995065603657315 !

#1250000000
r1.000000000000000 !

#1255000000
r0.9995065603657316 !

#1260000000
r0.9980267284282716 !

#1265000000
r0.9955619646030801 !

#1270000000
r0.9921147013144779 !

#1275000000
r0.9876883405951377 !

#1280000000
r0.9822872507286886 !

#1285000000
r0.9759167619387473 !

#1290000000
r0.9685831611286311 !

#1295000000
r0.9602936856769431 !

#1300000000
r0.9510565162951536 !

#1305000000
r0.9408807689542257 !

#1310000000
r0.9297764858882510 !

#1315000000
r0.9177546256839808 !

#1320000000
r0.9048270524660192 !

#1325000000
r0.8910065241883685 !

#1330000000
r0.8763066800438643 !

#1335000000
r0.8607420270039435 !

#1340000000
r0.8443279255020151 !

#1345000000
r0.8270805742745619 !

#1350000000
r0.8090169943749477 !

#1355000000
r0.7901550123756906 !

#1360000000
r0.7705132427757897 !

#1365000000
r0.7501110696304601 !

#1370000000
r0.7289686274214110 !

#1375000000
r0.7071067811865471 !

#1380000000
r0.6845471059286884 !

#1385000000
r0.6613118653236517 !

#1390000000
r0.6374239897486897 !

#1395000000
r0.6129070536529766 !

#1400000000
r0.5877852522924734 !

#1405000000
r0.5620833778521296 !

#1410000000
r0.5358267949789972 !

#1415000000
r0.5090414157503721 !

#1420000000
r0.4817536741017162 !

#1425000000
r0.4539904997395479 !

#1430000000
r0.4257792915650723 !

#1435000000
r0.3971478906347805 !

#1440000000
r0.3681245526846780 !

#1445000000
r0.3387379202452915 !

#1450000000
r0.3090169943749478 !

#1455000000
r0.2789911060392298 !

#1460000000
r0.2486898871648555 !

#1465000000
r0.2181432413965417 !

#1470000000
r0.1873813145857239 !

#1475000000
r0.1564344650402303 !

#1480000000
r0.1253332335643039 !

#1485000000
r0.09410831331851414 !

#1490000000
r0.06279051952931339 !

#1495000000
r0.03141075907812848 !

#1500000000
r3.673940397442059e-16 !

#1505000000
r-0.03141075907812775 !

#1510000000
r-0.06279051952931265 !

#1515000000
r-0.09410831331851342 !

#1520000000
r-0.1253332335643032 !

#1525000000
r-0.1564344650402314 !

#1530000000
r-0.1873813145857250 !

#1535000000
r-0.2181432413965427 !

#1540000000
r-0.2486898871648548 !

#1545000000
r-0.2789911060392291 !

#1550000000
r-0.3090169943749471 !

#1555000000
r-0.3387379202452909 !

#1560000000
r-0.3681245526846789 !

#1565000000
r-0.3971478906347814 !

#1570000000
r-0.4257792915650733 !

#1575000000
r-0.4539904997395472 !

#1580000000
r-0.4817536741017140 !

#1585000000
r-0.5090414157503699 !

#1590000000
r-0.5358267949789965 !

#1595000000
r-0.5620833778521305 !

#1600000000
r-0.5877852522924728 !

#1605000000
r-0.6129070536529760 !

#1610000000
r-0.6374239897486891 !

#1615000000
r-0.6613118653236512 !

#1620000000
r-0.6845471059286878 !

#1625000000
r-0.7071067811865479 !

#1630000000
r-0.7289686274214118 !

#1635000000
r-0.7501110696304596 !

#1640000000
r-0.7705132427757893 !

#1645000000
r-0.7901550123756902 !

#1650000000
r-0.8090169943749472 !

#1655000000
r-0.8270805742745625 !

#1660000000
r-0.8443279255020156 !

#1665000000
r-0.8607420270039432 !

#1670000000
r-0.8763066800438630 !

#1675000000
r-0.8910065241883672 !

#1680000000
r-0.9048270524660189 !

#1685000000
r-0.9177546256839811 !

#1690000000
r-0.9297764858882513 !

#1695000000
r-0.9408807689542253 !

#1700000000
r-0.9510565162951534 !

#1705000000
r-0.9602936856769430 !

#1710000000
r-0.9685831611286310 !

#1715000000
r-0.9759167619387472 !

#1720000000
r-0.9822872507286888 !

#1725000000
r-0.9876883405951378 !

#1730000000
r-0.9921147013144779 !

#1735000000
r-0.9955619646030800 !

#1740000000
r-0.9980267284282716 !

#1745000000
r-0.9995065603657316 !

#1750000000
r-1.000000000000000 !

#1755000000
r-0.9995065603657316 !

#1760000000
r-0.9980267284282716 !

#1765000000
r-0.9955619646030801 !

#1770000000
r-0.9921147013144780 !

#1775000000
r-0.9876883405951379 !

#1780000000
r-0.9822872507286886 !

#1785000000
r-0.9759167619387473 !

#1790000000
r-0.9685831611286312 !

#1795000000
r-0.9602936856769432 !

#1800000000
r-0.9510565162951538 !

#1805000000
r-0.9408807689542257 !

#1810000000
r-0.9297764858882517 !

#1815000000
r-0.9177546256839808 !

#1820000000
r-0.9048270524660192 !

#1825000000
r-0.8910065241883677 !

#1830000000
r-0.8763066800438635 !

#1835000000
r-0.8607420270039445 !

#1840000000
r-0.8443279255020151 !

#1845000000
r-0.8270805742745619 !

#1850000000
r-0.8090169943749477 !

#1855000000
r-0.7901550123756907 !

#1860000000
r-0.7705132427757897 !

#1865000000
r-0.7501110696304601 !

#1870000000
r-0.7289686274214123 !

#1875000000
r-0.7071067811865472 !

#1880000000
r-0.6845471059286885 !

#1885000000
r-0.6613118653236518 !

#1890000000
r-0.6374239897486897 !

#1895000000
r-0.6129070536529767 !

#1900000000
r-0.5877852522924735 !

#1905000000
r-0.5620833778521311 !

#1910000000
r-0.5358267949789958 !

#1915000000
r-0.5090414157503707 !

#1920000000
r-0.4817536741017163 !

#1925000000
r-0.4539904997395480 !

#1930000000
r-0.4257792915650740 !

#1935000000
r-0.3971478906347806 !

#1940000000
r-0.3681245526846781 !

#1945000000
r-0.3387379202452916 !

#1950000000
r-0.3090169943749479 !

#1955000000
r-0.2789911060392299 !

#1960000000
r-0.2486898871648556 !

#1965000000
r-0.2181432413965435 !

#1970000000
r-0.1873813145857258 !

#1975000000
r-0.1564344650402305 !

#1980000000
r-0.1253332335643058 !

#1985000000
r-0.09410831331851427 !

#1990000000
r-0.06279051952931528 !

#1995000000
r-0.03141075907812860 !

#2000000000
r-4.898587196589413e-16 !

#2005000000
r0.03141075907812940 !

#2010000000
r0.06279051952931253 !

#2015000000
r0.09410831331851506 !

#2020000000
r0.1253332335643030 !

#2025000000
r0.1564344650402313 !

#2030000000
r0.1873813145857249 !

#2035000000
r0.2181432413965426 !

#2040000000
r0.2486898871648547 !

#2045000000
r0.2789911060392272 !

#2050000000
r0.3090169943749470 !

#2055000000
r0.3387379202452908 !

#2060000000
r0.3681245526846771 !

#2065000000
r0.3971478906347797 !

#2070000000
r0.4257792915650732 !

#2075000000
r0.4539904997395455 !

#2080000000
r0.4817536741017154 !

#2085000000
r0.5090414157503698 !

#2090000000
r0.5358267949789964 !

#2095000000
r0.5620833778521304 !

#2100000000
r0.5877852522924741 !

#2105000000
r0.6129070536529759 !

#2110000000
r0.6374239897486904 !

#2115000000
r0.6613118653236510 !

#2120000000
r0.6845471059286891 !

#2125000000
r0.7071067811865478 !

#2130000000
r0.7289686274214104 !

#2135000000
r0.7501110696304596 !

#2140000000
r0.7705132427757880 !

#2145000000
r0.7901550123756902 !

#2150000000
r0.8090169943749471 !

#2155000000
r0.8270805742745614 !

#2160000000
r0.8443279255020146 !

#2165000000
r0.8607420270039440 !

#2170000000
r0.8763066800438630 !

#2175000000
r0.8910065241883680 !

#2180000000
r0.9048270524660188 !

#2185000000
r0.9177546256839811 !

#2190000000
r0.9297764858882513 !

#2195000000
r0.9408807689542259 !

#2200000000
r0.9510565162951534 !

#2205000000
r0.9602936856769434 !

#2210000000
r0.9685831611286309 !

#2215000000
r0.9759167619387475 !

#2220000000
r0.9822872507286888 !

#2225000000
r0.9876883405951375 !

#2230000000
r0.9921147013144779 !

#2235000000
r0.9955619646030799 !

#2240000000
r0.9980267284282716 !

#2245000000
r0.9995065603657316 !

#2250000000
r1.000000000000000 !

#2255000000
r0.9995065603657316 !

#2260000000
r0.9980267284282716 !

#2265000000
r0.9955619646030801 !

#2270000000
r0.9921147013144778 !

#2275000000
r0.9876883405951380 !

#2280000000
r0.9822872507286886 !

#2285000000
r0.9759167619387474 !

#2290000000
r0.9685831611286307 !

#2295000000
r0.9602936856769432 !

#2300000000
r0.9510565162951532 !

#2305000000
r0.9408807689542257 !

#2310000000
r0.9297764858882518 !

#2315000000
r0.9177546256839809 !

#2320000000
r0.9048270524660200 !

#2325000000
r0.8910065241883677 !

#2330000000
r0.8763066800438644 !

#2335000000
r0.8607420270039436 !

#2340000000
r0.8443279255020152 !

#2345000000
r0.8270805742745621 !

#2350000000
r0.8090169943749478 !

#2355000000
r0.7901550123756897 !

#2360000000
r0.7705132427757898 !

#2365000000
r0.7501110696304591 !

#2370000000
r0.7289686274214124 !

#2375000000
r0.7071067811865474 !

#2380000000
r0.6845471059286886 !

#2385000000
r0.6613118653236506 !

#2390000000
r0.6374239897486899 !

#2395000000
r0.6129070536529783 !

#2400000000
r0.5877852522924736 !

#2405000000
r0.5620833778521312 !

#2410000000
r0.5358267949789959 !

#2415000000
r0.5090414157503723 !

#2420000000
r0.4817536741017149 !

#2425000000
r0.4539904997395481 !

#2430000000
r0.4257792915650725 !

#2435000000
r0.3971478906347807 !

#2440000000
r0.3681245526846782 !

#2445000000
r0.3387379202452918 !

#2450000000
r0.3090169943749463 !

#2455000000
r0.2789911060392300 !

#2460000000
r0.2486898871648540 !

#2465000000
r0.2181432413965437 !

#2470000000
r0.1873813145857242 !

#2475000000
r0.1564344650402306 !

#2480000000
r0.1253332335643059 !

#2485000000
r0.09410831331851439 !

#2490000000
r0.06279051952931540 !

#2495000000
r0.03141075907812873 !

#2500000000
r6.123233995736766e-16 !

#2505000000
r-0.03141075907812928 !

#2510000000
r-0.06279051952931240 !

#2515000000
r-0.09410831331851495 !

#2520000000
r-0.1253332335643029 !

#2525000000
r-0.1564344650402311 !

#2530000000
r-0.1873813145857230 !

#2535000000
r-0.2181432413965425 !

#2540000000
r-0.2486898871648545 !

#2545000000
r-0.2789911060392306 !

#2550000000
r-0.3090169943749485 !

#2555000000
r-0.3387379202452906 !

#2560000000
r-0.3681245526846787 !

#2565000000
r-0.3971478906347796 !

#2570000000
r-0.4257792915650730 !

#2575000000
r-0.4539904997395454 !

#2580000000
r-0.4817536741017153 !

#2585000000
r-0.5090414157503697 !

#2590000000
r-0.5358267949789964 !

#2595000000
r-0.5620833778521288 !

#2600000000
r-0.5877852522924726 !

#2605000000
r-0.6129070536529745 !

#2610000000
r-0.6374239897486890 !

#2615000000
r-0.6613118653236524 !

#2620000000
r-0.6845471059286903 !

#2625000000
r-0.7071067811865477 !

#2630000000
r-0.7289686274214128 !

#2635000000
r-0.7501110696304595 !

#2640000000
r-0.7705132427757901 !

#2645000000
r-0.7901550123756901 !

#2650000000
r-0.8090169943749460 !

#2655000000
r-0.8270805742745614 !

#2660000000
r-0.8443279255020136 !

#2665000000
r-0.8607420270039431 !

#2670000000
r-0.8763066800438638 !

#2675000000
r-0.8910065241883671 !

#2680000000
r-0.9048270524660196 !

#2685000000
r-0.9177546256839818 !

#2690000000
r-0.9297764858882513 !

#2695000000
r-0.9408807689542259 !

#2700000000
r-0.9510565162951534 !

#2705000000
r-0.9602936856769433 !

#2710000000
r-0.9685831611286309 !

#2715000000
r-0.9759167619387475 !

#2720000000
r-0.9822872507286884 !

#2725000000
r-0.9876883405951378 !

#2730000000
r-0.9921147013144777 !

#2735000000
r-0.9955619646030800 !

#2740000000
r-0.9980267284282717 !

#2745000000
r-0.9995065603657315 !

#2750000000
r-1.000000000000000 !

#2755000000
r-0.9995065603657316 !

#2760000000
r-0.9980267284282716 !

#2765000000
r-0.9955619646030801 !

#2770000000
r-0.9921147013144778 !

#2775000000
r-0.9876883405951380 !

#2780000000
r-0.9822872507286887 !

#2785000000
r-0.9759167619387478 !

#2790000000
r-0.9685831611286312 !

#2795000000
r-0.9602936856769437 !

#2800000000
r-0.9510565162951538 !

#2805000000
r-0.9408807689542251 !

#2810000000
r-0.9297764858882505 !

#2815000000
r-0.9177546256839809 !

#2820000000
r-0.9048270524660201 !

#2825000000
r-0.8910065241883678 !

#2830000000
r-0.8763066800438645 !

#2835000000
r-0.8607420270039438 !

#2840000000
r-0.8443279255020162 !

#2845000000
r-0.8270805742745622 !

#2850000000
r-0.8090169943749489 !

#2855000000
r-0.7901550123756909 !

#2860000000
r-0.7705132427757888 !

#2865000000
r-0.7501110696304604 !

#2870000000
r-0.7289686274214112 !

#2875000000
r-0.7071067811865461 !

#2880000000
r-0.6845471059286886 !

#2885000000
r-0.6613118653236507 !

#2890000000
r-0.6374239897486900 !

#2895000000
r-0.6129070536529755 !

#2900000000
r-0.5877852522924737 !

#2905000000
r-0.5620833778521328 !

#2910000000
r-0.5358267949789975 !

#2915000000
r-0.5090414157503739 !

#2920000000
r-0.4817536741017165 !

#2925000000
r-0.4539904997395466 !

#2930000000
r-0.4257792915650710 !

#2935000000
r-0.3971478906347808 !

#2940000000
r-0.3681245526846766 !

#2945000000
r-0.3387379202452919 !

#2950000000
r-0.3090169943749464 !

#2955000000
r-0.2789911060392301 !

#2960000000
r-0.2486898871648541 !

#2965000000
r-0.2181432413965438 !

#2970000000
r-0.1873813145857243 !

#2975000000
r-0.1564344650402325 !

#2980000000
r-0.1253332335643043 !

#2985000000
r-0.09410831331851628 !

#2990000000
r-0.06279051952931375 !

#2995000000
r-0.03141075907812707 !

#3000000000
r-7.347880794884119e-16 !

#3005000000
r0.03141075907812916 !

#3010000000
r0.06279051952931229 !

#3015000000
r0.09410831331851482 !

#3020000000
r0.1253332335643028 !

#3025000000
r0.1564344650402310 !

#3030000000
r0.1873813145857229 !

#3035000000
r0.2181432413965423 !

#3040000000
r0.2486898871648527 !

#3045000000
r0.2789911060392287 !

#3050000000
r0.3090169943749484 !

#3055000000
r0.3387379202452905 !

#3060000000
r0.3681245526846786 !

#3065000000
r0.3971478906347827 !

#3070000000
r0.4257792915650729 !

#3075000000
r0.4539904997395453 !

#3080000000
r0.4817536741017152 !

#3085000000
r0.5090414157503695 !

#3090000000
r0.5358267949789963 !

#3095000000
r0.5620833778521287 !

#3100000000
r0.5877852522924725 !

#3105000000
r0.6129070536529744 !

#3110000000
r0.6374239897486889 !

#3115000000
r0.6613118653236523 !

#3120000000
r0.6845471059286902 !

#3125000000
r0.7071067811865476 !

#3130000000
r0.7289686274214127 !

#3135000000
r0.7501110696304594 !

#3140000000
r0.7705132427757901 !

#3145000000
r0.7901550123756900 !

#3150000000
r0.8090169943749480 !

#3155000000
r0.8270805742745613 !

#3160000000
r0.8443279255020135 !

#3165000000
r0.8607420270039430 !

#3170000000
r0.8763066800438620 !

#3175000000
r0.8910065241883671 !

#3180000000
r0.9048270524660195 !

#3185000000
r0.9177546256839817 !

#3190000000
r0.9297764858882512 !

#3195000000
r0.9408807689542259 !

#3200000000
r0.9510565162951533 !

#3205000000
r0.9602936856769433 !

#3210000000
r0.9685831611286309 !

#3215000000
r0.9759167619387475 !

#3220000000
r0.9822872507286884 !

#3225000000
r0.9876883405951378 !

#3230000000
r0.9921147013144775 !

#3235000000
r0.9955619646030800 !

#3240000000
r0.9980267284282714 !

#3245000000
r0.9995065603657315 !

#3250000000
r1.000000000000000 !

#3255000000
r0.9995065603657316 !

#3260000000
r0.9980267284282716 !

#3265000000
r0.9955619646030801 !

#3270000000
r0.9921147013144778 !

#3275000000
r0.9876883405951380 !

#3280000000
r0.9822872507286887 !

#3285000000
r0.9759167619387479 !

#3290000000
r0.9685831611286312 !

#3295000000
r0.9602936856769437 !

#3300000000
r0.9510565162951539 !

#3305000000
r0.9408807689542252 !

#3310000000
r0.9297764858882506 !

#3315000000
r0.9177546256839809 !

#3320000000
r0.9048270524660187 !

#3325000000
r0.8910065241883678 !

#3330000000
r0.8763066800438645 !

#3335000000
r0.8607420270039438 !

#3340000000
r0.8443279255020163 !

#3345000000
r0.8270805742745622 !

#3350000000
r0.8090169943749490 !

#3355000000
r0.7901550123756910 !

#3360000000
r0.7705132427757911 !

#3365000000
r0.7501110696304605 !

#3370000000
r0.7289686274214113 !

#3375000000
r0.7071067811865462 !

#3380000000
r0.6845471059286887 !

#3385000000
r0.6613118653236507 !

#3390000000
r0.6374239897486901 !

#3395000000
r0.6129070536529756 !

#3400000000
r0.5877852522924738 !

#3405000000
r0.5620833778521299 !

#3410000000
r0.5358267949789977 !

#3415000000
r0.5090414157503740 !

#3420000000
r0.4817536741017167 !

#3425000000
r0.4539904997395467 !

#3430000000
r0.4257792915650744 !

#3435000000
r0.3971478906347809 !

#3440000000
r0.3681245526846768 !

#3445000000
r0.3387379202452920 !

#3450000000
r0.3090169943749466 !

#3455000000
r0.2789911060392302 !

#3460000000
r0.2486898871648542 !

#3465000000
r0.2181432413965439 !

#3470000000
r0.1873813145857244 !

#3475000000
r0.1564344650402326 !

#3480000000
r0.1253332335643044 !

#3485000000
r0.09410831331851641 !

#3490000000
r0.06279051952931387 !

#3495000000
r0.03141075907812720 !

#3500000000
r8.572527594031472e-16 !

#3505000000
r-0.03141075907812903 !

#3510000000
r-0.06279051952931217 !

#3515000000
r-0.09410831331851470 !

#3520000000
r-0.1253332335643027 !

#3525000000
r-0.1564344650402309 !

#3530000000
r-0.1873813145857227 !

#3535000000
r-0.2181432413965422 !

#3540000000
r-0.2486898871648526 !

#3545000000
r-0.2789911060392286 !

#3550000000
r-0.3090169943749449 !

#3555000000
r-0.3387379202452904 !

#3560000000
r-0.3681245526846785 !

#3565000000
r-0.3971478906347826 !

#3570000000
r-0.4257792915650728 !

#3575000000
r-0.4539904997395484 !

#3580000000
r-0.4817536741017152 !

#3585000000
r-0.5090414157503694 !

#3590000000
r-0.5358267949789962 !

#3595000000
r-0.5620833778521286 !

#3600000000
r-0.5877852522924725 !

#3605000000
r-0.6129070536529743 !

#3610000000
r-0.6374239897486887 !

#3615000000
r-0.6613118653236522 !

#3620000000
r-0.6845471059286875 !

#3625000000
r-0.7071067811865476 !

#3630000000
r-0.7289686274214127 !

#3635000000
r-0.7501110696304593 !

#3640000000
r-0.7705132427757900 !

#3645000000
r-0.7901550123756900 !

#3650000000
r-0.8090169943749479 !

#3655000000
r-0.8270805742745613 !

#3660000000
r-0.8443279255020154 !

#3665000000
r-0.8607420270039429 !

#3670000000
r-0.8763066800438619 !

#3675000000
r-0.8910065241883670 !

#3680000000
r-0.9048270524660195 !

#3685000000
r-0.9177546256839817 !

#3690000000
r-0.9297764858882512 !

#3695000000
r-0.9408807689542258 !

#3700000000
r-0.9510565162951533 !

#3705000000
r-0.9602936856769433 !

#3710000000
r-0.9685831611286309 !

#3715000000
r-0.9759167619387474 !

#3720000000
r-0.9822872507286884 !

#3725000000
r-0.9876883405951378 !

#3730000000
r-0.9921147013144775 !

#3735000000
r-0.9955619646030800 !

#3740000000
r-0.9980267284282714 !

#3745000000
r-0.9995065603657315 !

#3750000000
r-1.000000000000000 !

#3755000000
r-0.9995065603657316 !

#3760000000
r-0.9980267284282716 !

#3765000000
r-0.9955619646030801 !

#3770000000
r-0.9921147013144778 !

#3775000000
r-0.9876883405951380 !

#3780000000
r-0.9822872507286887 !

#3785000000
r-0.9759167619387479 !

#3790000000
r-0.9685831611286313 !

#3795000000
r-0.9602936856769437 !

#3800000000
r-0.9510565162951539 !

#3805000000
r-0.9408807689542252 !

#3810000000
r-0.9297764858882519 !

#3815000000
r-0.9177546256839810 !

#3820000000
r-0.9048270524660187 !

#3825000000
r-0.8910065241883679 !

#3830000000
r-0.8763066800438628 !

#3835000000
r-0.8607420270039439 !

#3840000000
r-0.8443279255020163 !

#3845000000
r-0.8270805742745623 !

#3850000000
r-0.8090169943749490 !

#3855000000
r-0.7901550123756911 !

#3860000000
r-0.7705132427757911 !

#3865000000
r-0.7501110696304605 !

#3870000000
r-0.7289686274214114 !

#3875000000
r-0.7071067811865464 !

#3880000000
r-0.6845471059286888 !

#3885000000
r-0.6613118653236508 !

#3890000000
r-0.6374239897486902 !

#3895000000
r-0.6129070536529757 !

#3900000000
r-0.5877852522924739 !

#3905000000
r-0.5620833778521300 !

#3910000000
r-0.5358267949789978 !

#3915000000
r-0.5090414157503741 !

#3920000000
r-0.4817536741017168 !

#3925000000
r-0.4539904997395469 !

#3930000000
r-0.4257792915650745 !

#3935000000
r-0.3971478906347810 !

#3940000000
r-0.3681245526846802 !

#3945000000
r-0.3387379202452888 !

#3950000000
r-0.3090169943749467 !

#3955000000
r-0.2789911060392303 !

#3960000000
r-0.2486898871648578 !

#3965000000
r-0.2181432413965406 !

#3970000000
r-0.1873813145857245 !

#3975000000
r-0.1564344650402327 !

#3980000000
r-0.1253332335643080 !

#3985000000
r-0.09410831331851299 !

#3990000000
r-0.06279051952931400 !

#3995000000
r-0.03141075907812732 !

#4000000000
r-9.797174393178826e-16 !

#4005000000
r0.03141075907812536 !

#4010000000
r0.06279051952931558 !

#4015000000
r0.09410831331851457 !

#4020000000
r0.1253332335643026 !

#4025000000
r0.1564344650402273 !

#4030000000
r0.1873813145857261 !

#4035000000
r0.2181432413965421 !

#4040000000
r0.2486898871648525 !

#4045000000
r0.2789911060392251 !

#4050000000
r0.3090169943749482 !

#4055000000
r0.3387379202452903 !

#4060000000
r0.3681245526846784 !

#4065000000
r0.3971478906347792 !

